%YAML 1.1
%TAG !u! tag:unity3d.com,2011:
--- !u!74 &7400000
AnimationClip:
  m_ObjectHideFlags: 0
  m_CorrespondingSourceObject: {fileID: 0}
  m_PrefabInstance: {fileID: 0}
  m_PrefabAsset: {fileID: 0}
  m_Name: 2_OilerAction
  serializedVersion: 6
  m_Legacy: 0
  m_Compressed: 0
  m_UseHighQualityCurve: 1
  m_RotationCurves:
  - curve:
      serializedVersion: 2
      m_Curve:
      - serializedVersion: 3
        time: 0
        value: {x: 0.00000008143999, y: 0.022348095, z: -0.0000000018204831, w: 0.99975026}
        inSlope: {x: -0.0057043503, y: -0.007842243, z: -0.016218329, w: 0.00016736984}
        outSlope: {x: -0.0057043503, y: -0.007842243, z: -0.016218329, w: 0.00016736984}
        tangentMode: 0
        weightedMode: 0
        inWeight: {x: 0.33333334, y: 0.33333334, z: 0.33333334, w: 0.33333334}
        outWeight: {x: 0.33333334, y: 0.33333334, z: 0.33333334, w: 0.33333334}
      - serializedVersion: 3
        time: 0.9583334
        value: {x: -0.054962933, y: -0.07494695, z: -0.2562384, w: 0.96213514}
        inSlope: {x: -0.031025475, y: -0.11255723, z: -0.41477743, w: -0.12101558}
        outSlope: {x: -0.031025475, y: -0.11255723, z: -0.41477743, w: -0.12101558}
        tangentMode: 0
        weightedMode: 0
        inWeight: {x: 0.33333334, y: 0.33333334, z: 0.33333334, w: 0.33333334}
        outWeight: {x: 0.33333334, y: 0.33333334, z: 0.33333334, w: 0.33333334}
      - serializedVersion: 3
        time: 1.75
        value: {x: -0.028850917, y: -0.11054642, z: -0.5236137, w: 0.8442605}
        inSlope: {x: 0.057437826, y: 0.006237473, z: -0.18972723, w: -0.11475773}
        outSlope: {x: 0.057437826, y: 0.006237473, z: -0.18972723, w: -0.11475773}
        tangentMode: 0
        weightedMode: 0
        inWeight: {x: 0.33333334, y: 0.33333334, z: 0.33333334, w: 0.33333334}
        outWeight: {x: 0.33333334, y: 0.33333334, z: 0.33333334, w: 0.33333334}
      - serializedVersion: 3
        time: 2.5833335
        value: {x: -0.01776768, y: -0.108601876, z: -0.55637115, w: 0.82361466}
        inSlope: {x: 0.000040970783, y: 0.00021028539, z: -0.00073099206, w: -0.0004649167}
        outSlope: {x: 0.000040970783, y: 0.00021028539, z: -0.00073099206, w: -0.0004649167}
        tangentMode: 0
        weightedMode: 0
        inWeight: {x: 0.33333334, y: 0.33333334, z: 0.33333334, w: 0.33333334}
        outWeight: {x: 0.33333334, y: 0.33333334, z: 0.33333334, w: 0.33333334}
      - serializedVersion: 3
        time: 2.7916667
        value: {x: -0.017759135, y: -0.108558066, z: -0.5565235, w: 0.8235177}
        inSlope: {x: 0.000040836552, y: 0.00021019537, z: -0.0007302747, w: -0.00046491536}
        outSlope: {x: 0.000040836552, y: 0.00021019537, z: -0.0007302747, w: -0.00046491536}
        tangentMode: 0
        weightedMode: 0
        inWeight: {x: 0.33333334, y: 0.33333334, z: 0.33333334, w: 0.33333334}
        outWeight: {x: 0.33333334, y: 0.33333334, z: 0.33333334, w: 0.33333334}
      - serializedVersion: 3
        time: 2.9166667
        value: {x: -0.03154629, y: -0.110787526, z: -0.51446927, w: 0.8497367}
        inSlope: {x: -0.2593822, y: -0.007179723, z: 0.9551092, w: 0.5549716}
        outSlope: {x: -0.2593822, y: -0.007179723, z: 0.9551092, w: 0.5549716}
        tangentMode: 0
        weightedMode: 0
        inWeight: {x: 0.33333334, y: 0.33333334, z: 0.33333334, w: 0.33333334}
        outWeight: {x: 0.33333334, y: 0.33333334, z: 0.33333334, w: 0.33333334}
      - serializedVersion: 3
        time: 3.0416667
        value: {x: -0.05731893, y: -0.09238464, z: -0.32967156, w: 0.93781465}
        inSlope: {x: -0.019043427, y: 0.36962476, z: 1.817137, w: 0.6696576}
        outSlope: {x: -0.019043427, y: 0.36962476, z: 1.817137, w: 0.6696576}
        tangentMode: 0
        weightedMode: 0
        inWeight: {x: 0.33333334, y: 0.33333334, z: 0.33333334, w: 0.33333334}
        outWeight: {x: 0.33333334, y: 0.33333334, z: 0.33333334, w: 0.33333334}
      - serializedVersion: 3
        time: 3.1666667
        value: {x: -0.031197203, y: -0.024298403, z: -0.10564527, w: 0.99361736}
        inSlope: {x: 0.34642833, y: 0.5882038, z: 1.4954398, w: 0.19557773}
        outSlope: {x: 0.34642833, y: 0.5882038, z: 1.4954398, w: 0.19557773}
        tangentMode: 0
        weightedMode: 0
        inWeight: {x: 0.33333334, y: 0.33333334, z: 0.33333334, w: 0.33333334}
        outWeight: {x: 0.33333334, y: 0.33333334, z: 0.33333334, w: 0.33333334}
      - serializedVersion: 3
        time: 3.25
        value: {x: -0.0045936606, y: 0.015974171, z: -0.013320848, w: 0.99977314}
        inSlope: {x: 0.19545746, y: 0.27891913, z: 0.6013868, w: 0.013680035}
        outSlope: {x: 0.19545746, y: 0.27891913, z: 0.6013868, w: 0.013680035}
        tangentMode: 0
        weightedMode: 0
        inWeight: {x: 0.33333334, y: 0.33333334, z: 0.33333334, w: 0.33333334}
        outWeight: {x: 0.33333334, y: 0.33333334, z: 0.33333334, w: 0.33333334}
      - serializedVersion: 3
        time: 3.2916667
        value: {x: 0.00000008143999, y: 0.022348095, z: -0.0000000018204831, w: 0.99975026}
        inSlope: {x: 0.1102496, y: 0.15297386, z: 0.3196997, w: -0.00054931536}
        outSlope: {x: 0.1102496, y: 0.15297386, z: 0.3196997, w: -0.00054931536}
        tangentMode: 0
        weightedMode: 0
        inWeight: {x: 0.33333334, y: 0.33333334, z: 0.33333334, w: 0.33333334}
        outWeight: {x: 0.33333334, y: 0.33333334, z: 0.33333334, w: 0.33333334}
      m_PreInfinity: 2
      m_PostInfinity: 2
      m_RotationOrder: 4
    path: 2
  m_CompressedRotationCurves: []
  m_EulerCurves: []
  m_PositionCurves:
  - curve:
      serializedVersion: 2
      m_Curve:
      - serializedVersion: 3
        time: 0
        value: {x: -2.046554, y: 0, z: -1.9410832}
        inSlope: {x: 0.047596436, y: 0.04381128, z: -0.02189209}
        outSlope: {x: 0.047596436, y: 0.04381128, z: -0.02189209}
        tangentMode: 0
        weightedMode: 0
        inWeight: {x: 0.33333334, y: 0.33333334, z: 0.33333334}
        outWeight: {x: 0.33333334, y: 0.33333334, z: 0.33333334}
      - serializedVersion: 3
        time: 0.041666668
        value: {x: -2.044571, y: 0.0018254701, z: -1.9419954}
        inSlope: {x: 0.047596436, y: 0.04381128, z: -0.02189209}
        outSlope: {x: 0.047596436, y: 0.12906566, z: -0.02189209}
        tangentMode: 0
        weightedMode: 0
        inWeight: {x: 0.33333334, y: 0.33333334, z: 0.33333334}
        outWeight: {x: 0.33333334, y: 0.33333334, z: 0.33333334}
      - serializedVersion: 3
        time: 0.083333336
        value: {x: -2.0425878, y: 0.0072032064, z: -1.9429076}
        inSlope: {x: 0.047596436, y: 0.12906566, z: -0.02189209}
        outSlope: {x: 0.04759644, y: 0.2107678, z: -0.021895753}
        tangentMode: 0
        weightedMode: 0
        inWeight: {x: 0.33333334, y: 0.33333334, z: 0.33333334}
        outWeight: {x: 0.33333334, y: 0.33333334, z: 0.33333334}
      - serializedVersion: 3
        time: 0.125
        value: {x: -2.0406046, y: 0.015985198, z: -1.9438199}
        inSlope: {x: 0.04759644, y: 0.2107678, z: -0.021895753}
        outSlope: {x: 0.10753417, y: 0.2889176, z: -0.021892088}
        tangentMode: 0
        weightedMode: 0
        inWeight: {x: 0.33333334, y: 0.33333334, z: 0.33333334}
        outWeight: {x: 0.33333334, y: 0.33333334, z: 0.33333334}
      - serializedVersion: 3
        time: 0.16666667
        value: {x: -2.036124, y: 0.028023433, z: -1.9447321}
        inSlope: {x: 0.10753417, y: 0.2889176, z: -0.021892088}
        outSlope: {x: 0.13530397, y: 0.36351535, z: -0.021892095}
        tangentMode: 0
        weightedMode: 0
        inWeight: {x: 0.33333334, y: 0.33333334, z: 0.33333334}
        outWeight: {x: 0.33333334, y: 0.33333334, z: 0.33333334}
      - serializedVersion: 3
        time: 0.20833333
        value: {x: -2.0304863, y: 0.043169905, z: -1.9456441}
        inSlope: {x: 0.13530397, y: 0.36351535, z: -0.021892095}
        outSlope: {x: 0.16174436, y: 0.43456063, z: -0.021892088}
        tangentMode: 0
        weightedMode: 0
        inWeight: {x: 0.33333334, y: 0.33333334, z: 0.33333334}
        outWeight: {x: 0.33333334, y: 0.33333334, z: 0.33333334}
      - serializedVersion: 3
        time: 0.25
        value: {x: -2.023747, y: 0.061276596, z: -1.9465563}
        inSlope: {x: 0.16174436, y: 0.43456063, z: -0.021892088}
        outSlope: {x: 0.18685916, y: 0.50205356, z: -0.047698982}
        tangentMode: 0
        weightedMode: 0
        inWeight: {x: 0.33333334, y: 0.33333334, z: 0.33333334}
        outWeight: {x: 0.33333334, y: 0.33333334, z: 0.33333334}
      - serializedVersion: 3
        time: 0.29166666
        value: {x: -2.0159612, y: 0.08219549, z: -1.9485438}
        inSlope: {x: 0.18685916, y: 0.50205356, z: -0.047698982}
        outSlope: {x: 0.2106664, y: 0.56599426, z: -0.04769895}
        tangentMode: 0
        weightedMode: 0
        inWeight: {x: 0.33333334, y: 0.33333334, z: 0.33333334}
        outWeight: {x: 0.33333334, y: 0.33333334, z: 0.33333334}
      - serializedVersion: 3
        time: 0.33333334
        value: {x: -2.0071833, y: 0.1057786, z: -1.9505312}
        inSlope: {x: 0.2106664, y: 0.56599426, z: -0.04769895}
        outSlope: {x: 0.2331336, y: 0.62638265, z: -0.058491223}
        tangentMode: 0
        weightedMode: 0
        inWeight: {x: 0.33333334, y: 0.33333334, z: 0.33333334}
        outWeight: {x: 0.33333334, y: 0.33333334, z: 0.33333334}
      - serializedVersion: 3
        time: 0.41666666
        value: {x: -1.9868739, y: 0.16034532, z: -1.9554054}
        inSlope: {x: 0.25429326, y: 0.6832191, z: -0.05848756}
        outSlope: {x: 0.27412707, y: 0.7365029, z: -0.06800534}
        tangentMode: 0
        weightedMode: 0
        inWeight: {x: 0.33333334, y: 0.33333334, z: 0.33333334}
        outWeight: {x: 0.33333334, y: 0.33333334, z: 0.33333334}
      - serializedVersion: 3
        time: 0.5833333
        value: {x: -1.9367793, y: 0.29493672, z: -1.967427}
        inSlope: {x: 0.32568267, y: 0.87504125, z: -0.07625251}
        outSlope: {x: 0.34023544, y: 0.914116, z: -0.083236046}
        tangentMode: 0
        weightedMode: 0
        inWeight: {x: 0.33333334, y: 0.33333334, z: 0.33333334}
        outWeight: {x: 0.33333334, y: 0.33333334, z: 0.33333334}
      - serializedVersion: 3
        time: 1.9583334
        value: {x: -1.4786552, y: 1.5257968, z: -2.076262}
        inSlope: {x: 0.10753763, y: 0.28891057, z: 0.00073608255}
        outSlope: {x: 0.07844612, y: 0.21076925, z: 0.0007324225}
        tangentMode: 0
        weightedMode: 0
        inWeight: {x: 0.33333334, y: 0.33333334, z: 0.33333334}
        outWeight: {x: 0.33333334, y: 0.33333334, z: 0.33333334}
      - serializedVersion: 3
        time: 2.5
        value: {x: -1.4737779, y: 1.5410136, z: -2.075864}
        inSlope: {x: 0.0032190064, y: 0.0023071377, z: 0.0007360868}
        outSlope: {x: 0.0032153258, y: 0.0023071244, z: 0.00073608255}
        tangentMode: 0
        weightedMode: 0
        inWeight: {x: 0.33333334, y: 0.33333334, z: 0.33333334}
        outWeight: {x: 0.33333334, y: 0.33333334, z: 0.33333334}
      - serializedVersion: 3
        time: 2.8333333
        value: {x: -1.4727055, y: 1.5417821, z: -2.0756192}
        inSlope: {x: 0.0032190064, y: 0.0023071377, z: 0.00073242467}
        outSlope: {x: -0.32077086, y: -0.8618208, z: 0.00073608255}
        tangentMode: 0
        weightedMode: 0
        inWeight: {x: 0.33333334, y: 0.33333334, z: 0.33333334}
        outWeight: {x: 0.33333334, y: 0.33333334, z: 0.33333334}
      - serializedVersion: 3
        time: 2.875
        value: {x: -1.486071, y: 1.505873, z: -2.0755885}
        inSlope: {x: -0.32077086, y: -0.8618208, z: 0.00073608255}
        outSlope: {x: -0.87952346, y: -2.3630593, z: 0.21107626}
        tangentMode: 0
        weightedMode: 0
        inWeight: {x: 0.33333334, y: 0.33333334, z: 0.33333334}
        outWeight: {x: 0.33333334, y: 0.33333334, z: 0.33333334}
      - serializedVersion: 3
        time: 2.9166667
        value: {x: -1.5227178, y: 1.4074119, z: -2.0667937}
        inSlope: {x: -0.87952346, y: -2.3630593, z: 0.21107626}
        outSlope: {x: -1.3141273, y: -3.5307043, z: 0.31536007}
        tangentMode: 0
        weightedMode: 0
        inWeight: {x: 0.33333334, y: 0.33333334, z: 0.33333334}
        outWeight: {x: 0.33333334, y: 0.33333334, z: 0.33333334}
      - serializedVersion: 3
        time: 2.9583333
        value: {x: -1.5774729, y: 1.2602998, z: -2.0536537}
        inSlope: {x: -1.3141273, y: -3.5307043, z: 0.31536007}
        outSlope: {x: -1.6245342, y: -4.36471, z: 0.3898528}
        tangentMode: 0
        weightedMode: 0
        inWeight: {x: 0.33333334, y: 0.33333334, z: 0.33333334}
        outWeight: {x: 0.33333334, y: 0.33333334, z: 0.33333334}
      - serializedVersion: 3
        time: 3.0416667
        value: {x: -1.7206116, y: 0.875723, z: -2.0193033}
        inSlope: {x: -1.810785, y: -4.8651156, z: 0.43455604}
        outSlope: {x: -1.8728831, y: -5.0319476, z: 0.44946337}
        tangentMode: 0
        weightedMode: 0
        inWeight: {x: 0.33333334, y: 0.33333334, z: 0.33333334}
        outWeight: {x: 0.33333334, y: 0.33333334, z: 0.33333334}
      - serializedVersion: 3
        time: 3.125
        value: {x: -1.8740976, y: 0.4633457, z: -1.9824694}
        inSlope: {x: -1.810785, y: -4.8651175, z: 0.4345487}
        outSlope: {x: -1.6245416, y: -4.3647127, z: 0.38985646}
        tangentMode: 0
        weightedMode: 0
        inWeight: {x: 0.33333334, y: 0.33333334, z: 0.33333334}
        outWeight: {x: 0.33333334, y: 0.33333334, z: 0.33333334}
      - serializedVersion: 3
        time: 3.1666667
        value: {x: -1.9417869, y: 0.28148234, z: -1.9662254}
        inSlope: {x: -1.6245416, y: -4.3647127, z: 0.38985646}
        outSlope: {x: -1.31412, y: -3.5307043, z: 0.3153674}
        tangentMode: 0
        weightedMode: 0
        inWeight: {x: 0.33333334, y: 0.33333334, z: 0.33333334}
        outWeight: {x: 0.33333334, y: 0.33333334, z: 0.33333334}
      - serializedVersion: 3
        time: 3.2083333
        value: {x: -1.9965417, y: 0.13437021, z: -1.9530852}
        inSlope: {x: -1.31412, y: -3.5307043, z: 0.3153674}
        outSlope: {x: -0.8795271, y: -2.3630545, z: 0.21106893}
        tangentMode: 0
        weightedMode: 0
        inWeight: {x: 0.33333334, y: 0.33333334, z: 0.33333334}
        outWeight: {x: 0.33333334, y: 0.33333334, z: 0.33333334}
      - serializedVersion: 3
        time: 3.25
        value: {x: -2.0331888, y: 0.035909414, z: -1.9442905}
        inSlope: {x: -0.8795271, y: -2.3630545, z: 0.21106893}
        outSlope: {x: -0.3207672, y: -0.8618243, z: 0.07697739}
        tangentMode: 0
        weightedMode: 0
        inWeight: {x: 0.33333334, y: 0.33333334, z: 0.33333334}
        outWeight: {x: 0.33333334, y: 0.33333334, z: 0.33333334}
      - serializedVersion: 3
        time: 3.2916667
        value: {x: -2.046554, y: 0, z: -1.9410832}
        inSlope: {x: -0.3207672, y: -0.8618243, z: 0.07697739}
        outSlope: {x: -0.3207672, y: -0.8618243, z: 0.07697739}
        tangentMode: 0
        weightedMode: 0
        inWeight: {x: 0.33333334, y: 0.33333334, z: 0.33333334}
        outWeight: {x: 0.33333334, y: 0.33333334, z: 0.33333334}
      m_PreInfinity: 2
      m_PostInfinity: 2
      m_RotationOrder: 4
    path: 2
  m_ScaleCurves:
  - curve:
      serializedVersion: 2
      m_Curve:
      - serializedVersion: 3
        time: 0
        value: {x: 13.212233, y: 13.212231, z: 13.212233}
        inSlope: {x: 0, y: 0, z: 0}
        outSlope: {x: 0, y: 0, z: 0}
        tangentMode: 0
        weightedMode: 0
        inWeight: {x: 0.33333334, y: 0.33333334, z: 0.33333334}
        outWeight: {x: 0.33333334, y: 0.33333334, z: 0.33333334}
      - serializedVersion: 3
        time: 3.2916667
        value: {x: 13.212233, y: 13.212231, z: 13.212233}
        inSlope: {x: 0, y: 0, z: 0}
        outSlope: {x: 0, y: 0, z: 0}
        tangentMode: 0
        weightedMode: 0
        inWeight: {x: 0.33333334, y: 0.33333334, z: 0.33333334}
        outWeight: {x: 0.33333334, y: 0.33333334, z: 0.33333334}
      m_PreInfinity: 2
      m_PostInfinity: 2
      m_RotationOrder: 4
    path: 2
  m_FloatCurves:
  - curve:
      serializedVersion: 2
      m_Curve:
      - serializedVersion: 3
        time: 0
        value: 50
        inSlope: 0
        outSlope: 0
        tangentMode: 0
        weightedMode: 0
        inWeight: 0.33333334
        outWeight: 0.33333334
      - serializedVersion: 3
        time: 3.2916667
        value: 50
        inSlope: 0
        outSlope: 0
        tangentMode: 0
        weightedMode: 0
        inWeight: 0.33333334
        outWeight: 0.33333334
      m_PreInfinity: 2
      m_PostInfinity: 2
      m_RotationOrder: 4
    attribute: m_FocalLength
    path: Camera
    classID: 20
    script: {fileID: 0}
  m_PPtrCurves: []
  m_SampleRate: 24
  m_WrapMode: 0
  m_Bounds:
    m_Center: {x: 0, y: 0, z: 0}
    m_Extent: {x: 0, y: 0, z: 0}
  m_ClipBindingConstant:
    genericBindings: []
    pptrCurveMapping: []
  m_AnimationClipSettings:
    serializedVersion: 2
    m_AdditiveReferencePoseClip: {fileID: 0}
    m_AdditiveReferencePoseTime: 0
    m_StartTime: 0
    m_StopTime: 3.2916667
    m_OrientationOffsetY: 0
    m_Level: 0
    m_CycleOffset: 0
    m_HasAdditiveReferencePose: 0
    m_LoopTime: 0
    m_LoopBlend: 0
    m_LoopBlendOrientation: 0
    m_LoopBlendPositionY: 0
    m_LoopBlendPositionXZ: 0
    m_KeepOriginalOrientation: 0
    m_KeepOriginalPositionY: 1
    m_KeepOriginalPositionXZ: 0
    m_HeightFromFeet: 0
    m_Mirror: 0
  m_EditorCurves:
  - curve:
      serializedVersion: 2
      m_Curve:
      - serializedVersion: 3
        time: 0
        value: 50
        inSlope: 0
        outSlope: 0
        tangentMode: 0
        weightedMode: 0
        inWeight: 0.33333334
        outWeight: 0.33333334
      - serializedVersion: 3
        time: 3.2916667
        value: 50
        inSlope: 0
        outSlope: 0
        tangentMode: 0
        weightedMode: 0
        inWeight: 0.33333334
        outWeight: 0.33333334
      m_PreInfinity: 2
      m_PostInfinity: 2
      m_RotationOrder: 4
    attribute: m_FocalLength
    path: Camera
    classID: 20
    script: {fileID: 0}
  - curve:
      serializedVersion: 2
      m_Curve:
      - serializedVersion: 3
        time: 0
        value: 0.00000008143999
        inSlope: -0.0057043503
        outSlope: -0.0057043503
        tangentMode: 0
        weightedMode: 0
        inWeight: 0.33333334
        outWeight: 0.33333334
      - serializedVersion: 3
        time: 0.9583334
        value: -0.054962933
        inSlope: -0.031025475
        outSlope: -0.031025475
        tangentMode: 0
        weightedMode: 0
        inWeight: 0.33333334
        outWeight: 0.33333334
      - serializedVersion: 3
        time: 1.75
        value: -0.028850917
        inSlope: 0.057437826
        outSlope: 0.057437826
        tangentMode: 0
        weightedMode: 0
        inWeight: 0.33333334
        outWeight: 0.33333334
      - serializedVersion: 3
        time: 2.5833335
        value: -0.01776768
        inSlope: 0.000040970783
        outSlope: 0.000040970783
        tangentMode: 0
        weightedMode: 0
        inWeight: 0.33333334
        outWeight: 0.33333334
      - serializedVersion: 3
        time: 2.7916667
        value: -0.017759135
        inSlope: 0.000040836552
        outSlope: 0.000040836552
        tangentMode: 0
        weightedMode: 0
        inWeight: 0.33333334
        outWeight: 0.33333334
      - serializedVersion: 3
        time: 2.9166667
        value: -0.03154629
        inSlope: -0.2593822
        outSlope: -0.2593822
        tangentMode: 0
        weightedMode: 0
        inWeight: 0.33333334
        outWeight: 0.33333334
      - serializedVersion: 3
        time: 3.0416667
        value: -0.05731893
        inSlope: -0.019043427
        outSlope: -0.019043427
        tangentMode: 0
        weightedMode: 0
        inWeight: 0.33333334
        outWeight: 0.33333334
      - serializedVersion: 3
        time: 3.1666667
        value: -0.031197203
        inSlope: 0.34642833
        outSlope: 0.34642833
        tangentMode: 0
        weightedMode: 0
        inWeight: 0.33333334
        outWeight: 0.33333334
      - serializedVersion: 3
        time: 3.25
        value: -0.0045936606
        inSlope: 0.19545746
        outSlope: 0.19545746
        tangentMode: 0
        weightedMode: 0
        inWeight: 0.33333334
        outWeight: 0.33333334
      - serializedVersion: 3
        time: 3.2916667
        value: 0.00000008143999
        inSlope: 0.1102496
        outSlope: 0.1102496
        tangentMode: 0
        weightedMode: 0
        inWeight: 0.33333334
        outWeight: 0.33333334
      m_PreInfinity: 2
      m_PostInfinity: 2
      m_RotationOrder: 4
    attribute: m_LocalRotation.x
    path: 2
    classID: 4
    script: {fileID: 0}
  - curve:
      serializedVersion: 2
      m_Curve:
      - serializedVersion: 3
        time: 0
        value: 0.022348095
        inSlope: -0.007842243
        outSlope: -0.007842243
        tangentMode: 0
        weightedMode: 0
        inWeight: 0.33333334
        outWeight: 0.33333334
      - serializedVersion: 3
        time: 0.9583334
        value: -0.07494695
        inSlope: -0.11255723
        outSlope: -0.11255723
        tangentMode: 0
        weightedMode: 0
        inWeight: 0.33333334
        outWeight: 0.33333334
      - serializedVersion: 3
        time: 1.75
        value: -0.11054642
        inSlope: 0.006237473
        outSlope: 0.006237473
        tangentMode: 0
        weightedMode: 0
        inWeight: 0.33333334
        outWeight: 0.33333334
      - serializedVersion: 3
        time: 2.5833335
        value: -0.108601876
        inSlope: 0.00021028539
        outSlope: 0.00021028539
        tangentMode: 0
        weightedMode: 0
        inWeight: 0.33333334
        outWeight: 0.33333334
      - serializedVersion: 3
        time: 2.7916667
        value: -0.108558066
        inSlope: 0.00021019537
        outSlope: 0.00021019537
        tangentMode: 0
        weightedMode: 0
        inWeight: 0.33333334
        outWeight: 0.33333334
      - serializedVersion: 3
        time: 2.9166667
        value: -0.110787526
        inSlope: -0.007179723
        outSlope: -0.007179723
        tangentMode: 0
        weightedMode: 0
        inWeight: 0.33333334
        outWeight: 0.33333334
      - serializedVersion: 3
        time: 3.0416667
        value: -0.09238464
        inSlope: 0.36962476
        outSlope: 0.36962476
        tangentMode: 0
        weightedMode: 0
        inWeight: 0.33333334
        outWeight: 0.33333334
      - serializedVersion: 3
        time: 3.1666667
        value: -0.024298403
        inSlope: 0.5882038
        outSlope: 0.5882038
        tangentMode: 0
        weightedMode: 0
        inWeight: 0.33333334
        outWeight: 0.33333334
      - serializedVersion: 3
        time: 3.25
        value: 0.015974171
        inSlope: 0.27891913
        outSlope: 0.27891913
        tangentMode: 0
        weightedMode: 0
        inWeight: 0.33333334
        outWeight: 0.33333334
      - serializedVersion: 3
        time: 3.2916667
        value: 0.022348095
        inSlope: 0.15297386
        outSlope: 0.15297386
        tangentMode: 0
        weightedMode: 0
        inWeight: 0.33333334
        outWeight: 0.33333334
      m_PreInfinity: 2
      m_PostInfinity: 2
      m_RotationOrder: 4
    attribute: m_LocalRotation.y
    path: 2
    classID: 4
    script: {fileID: 0}
  - curve:
      serializedVersion: 2
      m_Curve:
      - serializedVersion: 3
        time: 0
        value: -0.0000000018204831
        inSlope: -0.016218329
        outSlope: -0.016218329
        tangentMode: 0
        weightedMode: 0
        inWeight: 0.33333334
        outWeight: 0.33333334
      - serializedVersion: 3
        time: 0.9583334
        value: -0.2562384
        inSlope: -0.41477743
        outSlope: -0.41477743
        tangentMode: 0
        weightedMode: 0
        inWeight: 0.33333334
        outWeight: 0.33333334
      - serializedVersion: 3
        time: 1.75
        value: -0.5236137
        inSlope: -0.18972723
        outSlope: -0.18972723
        tangentMode: 0
        weightedMode: 0
        inWeight: 0.33333334
        outWeight: 0.33333334
      - serializedVersion: 3
        time: 2.5833335
        value: -0.55637115
        inSlope: -0.00073099206
        outSlope: -0.00073099206
        tangentMode: 0
        weightedMode: 0
        inWeight: 0.33333334
        outWeight: 0.33333334
      - serializedVersion: 3
        time: 2.7916667
        value: -0.5565235
        inSlope: -0.0007302747
        outSlope: -0.0007302747
        tangentMode: 0
        weightedMode: 0
        inWeight: 0.33333334
        outWeight: 0.33333334
      - serializedVersion: 3
        time: 2.9166667
        value: -0.51446927
        inSlope: 0.9551092
        outSlope: 0.9551092
        tangentMode: 0
        weightedMode: 0
        inWeight: 0.33333334
        outWeight: 0.33333334
      - serializedVersion: 3
        time: 3.0416667
        value: -0.32967156
        inSlope: 1.817137
        outSlope: 1.817137
        tangentMode: 0
        weightedMode: 0
        inWeight: 0.33333334
        outWeight: 0.33333334
      - serializedVersion: 3
        time: 3.1666667
        value: -0.10564527
        inSlope: 1.4954398
        outSlope: 1.4954398
        tangentMode: 0
        weightedMode: 0
        inWeight: 0.33333334
        outWeight: 0.33333334
      - serializedVersion: 3
        time: 3.25
        value: -0.013320848
        inSlope: 0.6013868
        outSlope: 0.6013868
        tangentMode: 0
        weightedMode: 0
        inWeight: 0.33333334
        outWeight: 0.33333334
      - serializedVersion: 3
        time: 3.2916667
        value: -0.0000000018204831
        inSlope: 0.3196997
        outSlope: 0.3196997
        tangentMode: 0
        weightedMode: 0
        inWeight: 0.33333334
        outWeight: 0.33333334
      m_PreInfinity: 2
      m_PostInfinity: 2
      m_RotationOrder: 4
    attribute: m_LocalRotation.z
    path: 2
    classID: 4
    script: {fileID: 0}
  - curve:
      serializedVersion: 2
      m_Curve:
      - serializedVersion: 3
        time: 0
        value: 0.99975026
        inSlope: 0.00016736984
        outSlope: 0.00016736984
        tangentMode: 0
        weightedMode: 0
        inWeight: 0.33333334
        outWeight: 0.33333334
      - serializedVersion: 3
        time: 0.9583334
        value: 0.96213514
        inSlope: -0.12101558
        outSlope: -0.12101558
        tangentMode: 0
        weightedMode: 0
        inWeight: 0.33333334
        outWeight: 0.33333334
      - serializedVersion: 3
        time: 1.75
        value: 0.8442605
        inSlope: -0.11475773
        outSlope: -0.11475773
        tangentMode: 0
        weightedMode: 0
        inWeight: 0.33333334
        outWeight: 0.33333334
      - serializedVersion: 3
        time: 2.5833335
        value: 0.82361466
        inSlope: -0.0004649167
        outSlope: -0.0004649167
        tangentMode: 0
        weightedMode: 0
        inWeight: 0.33333334
        outWeight: 0.33333334
      - serializedVersion: 3
        time: 2.7916667
        value: 0.8235177
        inSlope: -0.00046491536
        outSlope: -0.00046491536
        tangentMode: 0
        weightedMode: 0
        inWeight: 0.33333334
        outWeight: 0.33333334
      - serializedVersion: 3
        time: 2.9166667
        value: 0.8497367
        inSlope: 0.5549716
        outSlope: 0.5549716
        tangentMode: 0
        weightedMode: 0
        inWeight: 0.33333334
        outWeight: 0.33333334
      - serializedVersion: 3
        time: 3.0416667
        value: 0.93781465
        inSlope: 0.6696576
        outSlope: 0.6696576
        tangentMode: 0
        weightedMode: 0
        inWeight: 0.33333334
        outWeight: 0.33333334
      - serializedVersion: 3
        time: 3.1666667
        value: 0.99361736
        inSlope: 0.19557773
        outSlope: 0.19557773
        tangentMode: 0
        weightedMode: 0
        inWeight: 0.33333334
        outWeight: 0.33333334
      - serializedVersion: 3
        time: 3.25
        value: 0.99977314
        inSlope: 0.013680035
        outSlope: 0.013680035
        tangentMode: 0
        weightedMode: 0
        inWeight: 0.33333334
        outWeight: 0.33333334
      - serializedVersion: 3
        time: 3.2916667
        value: 0.99975026
        inSlope: -0.00054931536
        outSlope: -0.00054931536
        tangentMode: 0
        weightedMode: 0
        inWeight: 0.33333334
        outWeight: 0.33333334
      m_PreInfinity: 2
      m_PostInfinity: 2
      m_RotationOrder: 4
    attribute: m_LocalRotation.w
    path: 2
    classID: 4
    script: {fileID: 0}
  - curve:
      serializedVersion: 2
      m_Curve:
      - serializedVersion: 3
        time: 0
        value: -2.046554
        inSlope: 0.047596436
        outSlope: 0.047596436
        tangentMode: 0
        weightedMode: 0
        inWeight: 0.33333334
        outWeight: 0.33333334
      - serializedVersion: 3
        time: 0.041666668
        value: -2.044571
        inSlope: 0.047596436
        outSlope: 0.047596436
        tangentMode: 0
        weightedMode: 0
        inWeight: 0.33333334
        outWeight: 0.33333334
      - serializedVersion: 3
        time: 0.083333336
        value: -2.0425878
        inSlope: 0.047596436
        outSlope: 0.04759644
        tangentMode: 0
        weightedMode: 0
        inWeight: 0.33333334
        outWeight: 0.33333334
      - serializedVersion: 3
        time: 0.125
        value: -2.0406046
        inSlope: 0.04759644
        outSlope: 0.10753417
        tangentMode: 0
        weightedMode: 0
        inWeight: 0.33333334
        outWeight: 0.33333334
      - serializedVersion: 3
        time: 0.16666667
        value: -2.036124
        inSlope: 0.10753417
        outSlope: 0.13530397
        tangentMode: 0
        weightedMode: 0
        inWeight: 0.33333334
        outWeight: 0.33333334
      - serializedVersion: 3
        time: 0.20833333
        value: -2.0304863
        inSlope: 0.13530397
        outSlope: 0.16174436
        tangentMode: 0
        weightedMode: 0
        inWeight: 0.33333334
        outWeight: 0.33333334
      - serializedVersion: 3
        time: 0.25
        value: -2.023747
        inSlope: 0.16174436
        outSlope: 0.18685916
        tangentMode: 0
        weightedMode: 0
        inWeight: 0.33333334
        outWeight: 0.33333334
      - serializedVersion: 3
        time: 0.29166666
        value: -2.0159612
        inSlope: 0.18685916
        outSlope: 0.2106664
        tangentMode: 0
        weightedMode: 0
        inWeight: 0.33333334
        outWeight: 0.33333334
      - serializedVersion: 3
        time: 0.33333334
        value: -2.0071833
        inSlope: 0.2106664
        outSlope: 0.2331336
        tangentMode: 0
        weightedMode: 0
        inWeight: 0.33333334
        outWeight: 0.33333334
      - serializedVersion: 3
        time: 0.41666666
        value: -1.9868739
        inSlope: 0.25429326
        outSlope: 0.27412707
        tangentMode: 0
        weightedMode: 0
        inWeight: 0.33333334
        outWeight: 0.33333334
      - serializedVersion: 3
        time: 0.5833333
        value: -1.9367793
        inSlope: 0.32568267
        outSlope: 0.34023544
        tangentMode: 0
        weightedMode: 0
        inWeight: 0.33333334
        outWeight: 0.33333334
      - serializedVersion: 3
        time: 1.9583334
        value: -1.4786552
        inSlope: 0.10753763
        outSlope: 0.07844612
        tangentMode: 0
        weightedMode: 0
        inWeight: 0.33333334
        outWeight: 0.33333334
      - serializedVersion: 3
        time: 2.5
        value: -1.4737779
        inSlope: 0.0032190064
        outSlope: 0.0032153258
        tangentMode: 0
        weightedMode: 0
        inWeight: 0.33333334
        outWeight: 0.33333334
      - serializedVersion: 3
        time: 2.8333333
        value: -1.4727055
        inSlope: 0.0032190064
        outSlope: -0.32077086
        tangentMode: 0
        weightedMode: 0
        inWeight: 0.33333334
        outWeight: 0.33333334
      - serializedVersion: 3
        time: 2.875
        value: -1.486071
        inSlope: -0.32077086
        outSlope: -0.87952346
        tangentMode: 0
        weightedMode: 0
        inWeight: 0.33333334
        outWeight: 0.33333334
      - serializedVersion: 3
        time: 2.9166667
        value: -1.5227178
        inSlope: -0.87952346
        outSlope: -1.3141273
        tangentMode: 0
        weightedMode: 0
        inWeight: 0.33333334
        outWeight: 0.33333334
      - serializedVersion: 3
        time: 2.9583333
        value: -1.5774729
        inSlope: -1.3141273
        outSlope: -1.6245342
        tangentMode: 0
        weightedMode: 0
        inWeight: 0.33333334
        outWeight: 0.33333334
      - serializedVersion: 3
        time: 3.0416667
        value: -1.7206116
        inSlope: -1.810785
        outSlope: -1.8728831
        tangentMode: 0
        weightedMode: 0
        inWeight: 0.33333334
        outWeight: 0.33333334
      - serializedVersion: 3
        time: 3.125
        value: -1.8740976
        inSlope: -1.810785
        outSlope: -1.6245416
        tangentMode: 0
        weightedMode: 0
        inWeight: 0.33333334
        outWeight: 0.33333334
      - serializedVersion: 3
        time: 3.1666667
        value: -1.9417869
        inSlope: -1.6245416
        outSlope: -1.31412
        tangentMode: 0
        weightedMode: 0
        inWeight: 0.33333334
        outWeight: 0.33333334
      - serializedVersion: 3
        time: 3.2083333
        value: -1.9965417
        inSlope: -1.31412
        outSlope: -0.8795271
        tangentMode: 0
        weightedMode: 0
        inWeight: 0.33333334
        outWeight: 0.33333334
      - serializedVersion: 3
        time: 3.25
        value: -2.0331888
        inSlope: -0.8795271
        outSlope: -0.3207672
        tangentMode: 0
        weightedMode: 0
        inWeight: 0.33333334
        outWeight: 0.33333334
      - serializedVersion: 3
        time: 3.2916667
        value: -2.046554
        inSlope: -0.3207672
        outSlope: -0.3207672
        tangentMode: 0
        weightedMode: 0
        inWeight: 0.33333334
        outWeight: 0.33333334
      m_PreInfinity: 2
      m_PostInfinity: 2
      m_RotationOrder: 4
    attribute: m_LocalPosition.x
    path: 2
    classID: 4
    script: {fileID: 0}
  - curve:
      serializedVersion: 2
      m_Curve:
      - serializedVersion: 3
        time: 0
        value: 0
        inSlope: 0.04381128
        outSlope: 0.04381128
        tangentMode: 0
        weightedMode: 0
        inWeight: 0.33333334
        outWeight: 0.33333334
      - serializedVersion: 3
        time: 0.041666668
        value: 0.0018254701
        inSlope: 0.04381128
        outSlope: 0.12906566
        tangentMode: 0
        weightedMode: 0
        inWeight: 0.33333334
        outWeight: 0.33333334
      - serializedVersion: 3
        time: 0.083333336
        value: 0.0072032064
        inSlope: 0.12906566
        outSlope: 0.2107678
        tangentMode: 0
        weightedMode: 0
        inWeight: 0.33333334
        outWeight: 0.33333334
      - serializedVersion: 3
        time: 0.125
        value: 0.015985198
        inSlope: 0.2107678
        outSlope: 0.2889176
        tangentMode: 0
        weightedMode: 0
        inWeight: 0.33333334
        outWeight: 0.33333334
      - serializedVersion: 3
        time: 0.16666667
        value: 0.028023433
        inSlope: 0.2889176
        outSlope: 0.36351535
        tangentMode: 0
        weightedMode: 0
        inWeight: 0.33333334
        outWeight: 0.33333334
      - serializedVersion: 3
        time: 0.20833333
        value: 0.043169905
        inSlope: 0.36351535
        outSlope: 0.43456063
        tangentMode: 0
        weightedMode: 0
        inWeight: 0.33333334
        outWeight: 0.33333334
      - serializedVersion: 3
        time: 0.25
        value: 0.061276596
        inSlope: 0.43456063
        outSlope: 0.50205356
        tangentMode: 0
        weightedMode: 0
        inWeight: 0.33333334
        outWeight: 0.33333334
      - serializedVersion: 3
        time: 0.29166666
        value: 0.08219549
        inSlope: 0.50205356
        outSlope: 0.56599426
        tangentMode: 0
        weightedMode: 0
        inWeight: 0.33333334
        outWeight: 0.33333334
      - serializedVersion: 3
        time: 0.33333334
        value: 0.1057786
        inSlope: 0.56599426
        outSlope: 0.62638265
        tangentMode: 0
        weightedMode: 0
        inWeight: 0.33333334
        outWeight: 0.33333334
      - serializedVersion: 3
        time: 0.41666666
        value: 0.16034532
        inSlope: 0.6832191
        outSlope: 0.7365029
        tangentMode: 0
        weightedMode: 0
        inWeight: 0.33333334
        outWeight: 0.33333334
      - serializedVersion: 3
        time: 0.5833333
        value: 0.29493672
        inSlope: 0.87504125
        outSlope: 0.914116
        tangentMode: 0
        weightedMode: 0
        inWeight: 0.33333334
        outWeight: 0.33333334
      - serializedVersion: 3
        time: 1.9583334
        value: 1.5257968
        inSlope: 0.28891057
        outSlope: 0.21076925
        tangentMode: 0
        weightedMode: 0
        inWeight: 0.33333334
        outWeight: 0.33333334
      - serializedVersion: 3
        time: 2.5
        value: 1.5410136
        inSlope: 0.0023071377
        outSlope: 0.0023071244
        tangentMode: 0
        weightedMode: 0
        inWeight: 0.33333334
        outWeight: 0.33333334
      - serializedVersion: 3
        time: 2.8333333
        value: 1.5417821
        inSlope: 0.0023071377
        outSlope: -0.8618208
        tangentMode: 0
        weightedMode: 0
        inWeight: 0.33333334
        outWeight: 0.33333334
      - serializedVersion: 3
        time: 2.875
        value: 1.505873
        inSlope: -0.8618208
        outSlope: -2.3630593
        tangentMode: 0
        weightedMode: 0
        inWeight: 0.33333334
        outWeight: 0.33333334
      - serializedVersion: 3
        time: 2.9166667
        value: 1.4074119
        inSlope: -2.3630593
        outSlope: -3.5307043
        tangentMode: 0
        weightedMode: 0
        inWeight: 0.33333334
        outWeight: 0.33333334
      - serializedVersion: 3
        time: 2.9583333
        value: 1.2602998
        inSlope: -3.5307043
        outSlope: -4.36471
        tangentMode: 0
        weightedMode: 0
        inWeight: 0.33333334
        outWeight: 0.33333334
      - serializedVersion: 3
        time: 3.0416667
        value: 0.875723
        inSlope: -4.8651156
        outSlope: -5.0319476
        tangentMode: 0
        weightedMode: 0
        inWeight: 0.33333334
        outWeight: 0.33333334
      - serializedVersion: 3
        time: 3.125
        value: 0.4633457
        inSlope: -4.8651175
        outSlope: -4.3647127
        tangentMode: 0
        weightedMode: 0
        inWeight: 0.33333334
        outWeight: 0.33333334
      - serializedVersion: 3
        time: 3.1666667
        value: 0.28148234
        inSlope: -4.3647127
        outSlope: -3.5307043
        tangentMode: 0
        weightedMode: 0
        inWeight: 0.33333334
        outWeight: 0.33333334
      - serializedVersion: 3
        time: 3.2083333
        value: 0.13437021
        inSlope: -3.5307043
        outSlope: -2.3630545
        tangentMode: 0
        weightedMode: 0
        inWeight: 0.33333334
        outWeight: 0.33333334
      - serializedVersion: 3
        time: 3.25
        value: 0.035909414
        inSlope: -2.3630545
        outSlope: -0.8618243
        tangentMode: 0
        weightedMode: 0
        inWeight: 0.33333334
        outWeight: 0.33333334
      - serializedVersion: 3
        time: 3.2916667
        value: 0
        inSlope: -0.8618243
        outSlope: -0.8618243
        tangentMode: 0
        weightedMode: 0
        inWeight: 0.33333334
        outWeight: 0.33333334
      m_PreInfinity: 2
      m_PostInfinity: 2
      m_RotationOrder: 4
    attribute: m_LocalPosition.y
    path: 2
    classID: 4
    script: {fileID: 0}
  - curve:
      serializedVersion: 2
      m_Curve:
      - serializedVersion: 3
        time: 0
        value: -1.9410832
        inSlope: -0.02189209
        outSlope: -0.02189209
        tangentMode: 0
        weightedMode: 0
        inWeight: 0.33333334
        outWeight: 0.33333334
      - serializedVersion: 3
        time: 0.041666668
        value: -1.9419954
        inSlope: -0.02189209
        outSlope: -0.02189209
        tangentMode: 0
        weightedMode: 0
        inWeight: 0.33333334
        outWeight: 0.33333334
      - serializedVersion: 3
        time: 0.083333336
        value: -1.9429076
        inSlope: -0.02189209
        outSlope: -0.021895753
        tangentMode: 0
        weightedMode: 0
        inWeight: 0.33333334
        outWeight: 0.33333334
      - serializedVersion: 3
        time: 0.125
        value: -1.9438199
        inSlope: -0.021895753
        outSlope: -0.021892088
        tangentMode: 0
        weightedMode: 0
        inWeight: 0.33333334
        outWeight: 0.33333334
      - serializedVersion: 3
        time: 0.16666667
        value: -1.9447321
        inSlope: -0.021892088
        outSlope: -0.021892095
        tangentMode: 0
        weightedMode: 0
        inWeight: 0.33333334
        outWeight: 0.33333334
      - serializedVersion: 3
        time: 0.20833333
        value: -1.9456441
        inSlope: -0.021892095
        outSlope: -0.021892088
        tangentMode: 0
        weightedMode: 0
        inWeight: 0.33333334
        outWeight: 0.33333334
      - serializedVersion: 3
        time: 0.25
        value: -1.9465563
        inSlope: -0.021892088
        outSlope: -0.047698982
        tangentMode: 0
        weightedMode: 0
        inWeight: 0.33333334
        outWeight: 0.33333334
      - serializedVersion: 3
        time: 0.29166666
        value: -1.9485438
        inSlope: -0.047698982
        outSlope: -0.04769895
        tangentMode: 0
        weightedMode: 0
        inWeight: 0.33333334
        outWeight: 0.33333334
      - serializedVersion: 3
        time: 0.33333334
        value: -1.9505312
        inSlope: -0.04769895
        outSlope: -0.058491223
        tangentMode: 0
        weightedMode: 0
        inWeight: 0.33333334
        outWeight: 0.33333334
      - serializedVersion: 3
        time: 0.41666666
        value: -1.9554054
        inSlope: -0.05848756
        outSlope: -0.06800534
        tangentMode: 0
        weightedMode: 0
        inWeight: 0.33333334
        outWeight: 0.33333334
      - serializedVersion: 3
        time: 0.5833333
        value: -1.967427
        inSlope: -0.07625251
        outSlope: -0.083236046
        tangentMode: 0
        weightedMode: 0
        inWeight: 0.33333334
        outWeight: 0.33333334
      - serializedVersion: 3
        time: 1.9583334
        value: -2.076262
        inSlope: 0.00073608255
        outSlope: 0.0007324225
        tangentMode: 0
        weightedMode: 0
        inWeight: 0.33333334
        outWeight: 0.33333334
      - serializedVersion: 3
        time: 2.5
        value: -2.075864
        inSlope: 0.0007360868
        outSlope: 0.00073608255
        tangentMode: 0
        weightedMode: 0
        inWeight: 0.33333334
        outWeight: 0.33333334
      - serializedVersion: 3
        time: 2.8333333
        value: -2.0756192
        inSlope: 0.00073242467
        outSlope: 0.00073608255
        tangentMode: 0
        weightedMode: 0
        inWeight: 0.33333334
        outWeight: 0.33333334
      - serializedVersion: 3
        time: 2.875
        value: -2.0755885
        inSlope: 0.00073608255
        outSlope: 0.21107626
        tangentMode: 0
        weightedMode: 0
        inWeight: 0.33333334
        outWeight: 0.33333334
      - serializedVersion: 3
        time: 2.9166667
        value: -2.0667937
        inSlope: 0.21107626
        outSlope: 0.31536007
        tangentMode: 0
        weightedMode: 0
        inWeight: 0.33333334
        outWeight: 0.33333334
      - serializedVersion: 3
        time: 2.9583333
        value: -2.0536537
        inSlope: 0.31536007
        outSlope: 0.3898528
        tangentMode: 0
        weightedMode: 0
        inWeight: 0.33333334
        outWeight: 0.33333334
      - serializedVersion: 3
        time: 3.0416667
        value: -2.0193033
        inSlope: 0.43455604
        outSlope: 0.44946337
        tangentMode: 0
        weightedMode: 0
        inWeight: 0.33333334
        outWeight: 0.33333334
      - serializedVersion: 3
        time: 3.125
        value: -1.9824694
        inSlope: 0.4345487
        outSlope: 0.38985646
        tangentMode: 0
        weightedMode: 0
        inWeight: 0.33333334
        outWeight: 0.33333334
      - serializedVersion: 3
        time: 3.1666667
        value: -1.9662254
        inSlope: 0.38985646
        outSlope: 0.3153674
        tangentMode: 0
        weightedMode: 0
        inWeight: 0.33333334
        outWeight: 0.33333334
      - serializedVersion: 3
        time: 3.2083333
        value: -1.9530852
        inSlope: 0.3153674
        outSlope: 0.21106893
        tangentMode: 0
        weightedMode: 0
        inWeight: 0.33333334
        outWeight: 0.33333334
      - serializedVersion: 3
        time: 3.25
        value: -1.9442905
        inSlope: 0.21106893
        outSlope: 0.07697739
        tangentMode: 0
        weightedMode: 0
        inWeight: 0.33333334
        outWeight: 0.33333334
      - serializedVersion: 3
        time: 3.2916667
        value: -1.9410832
        inSlope: 0.07697739
        outSlope: 0.07697739
        tangentMode: 0
        weightedMode: 0
        inWeight: 0.33333334
        outWeight: 0.33333334
      m_PreInfinity: 2
      m_PostInfinity: 2
      m_RotationOrder: 4
    attribute: m_LocalPosition.z
    path: 2
    classID: 4
    script: {fileID: 0}
  - curve:
      serializedVersion: 2
      m_Curve:
      - serializedVersion: 3
        time: 0
        value: 13.212233
        inSlope: 0
        outSlope: 0
        tangentMode: 0
        weightedMode: 0
        inWeight: 0.33333334
        outWeight: 0.33333334
      - serializedVersion: 3
        time: 3.2916667
        value: 13.212233
        inSlope: 0
        outSlope: 0
        tangentMode: 0
        weightedMode: 0
        inWeight: 0.33333334
        outWeight: 0.33333334
      m_PreInfinity: 2
      m_PostInfinity: 2
      m_RotationOrder: 4
    attribute: m_LocalScale.x
    path: 2
    classID: 4
    script: {fileID: 0}
  - curve:
      serializedVersion: 2
      m_Curve:
      - serializedVersion: 3
        time: 0
        value: 13.212231
        inSlope: 0
        outSlope: 0
        tangentMode: 0
        weightedMode: 0
        inWeight: 0.33333334
        outWeight: 0.33333334
      - serializedVersion: 3
        time: 3.2916667
        value: 13.212231
        inSlope: 0
        outSlope: 0
        tangentMode: 0
        weightedMode: 0
        inWeight: 0.33333334
        outWeight: 0.33333334
      m_PreInfinity: 2
      m_PostInfinity: 2
      m_RotationOrder: 4
    attribute: m_LocalScale.y
    path: 2
    classID: 4
    script: {fileID: 0}
  - curve:
      serializedVersion: 2
      m_Curve:
      - serializedVersion: 3
        time: 0
        value: 13.212233
        inSlope: 0
        outSlope: 0
        tangentMode: 0
        weightedMode: 0
        inWeight: 0.33333334
        outWeight: 0.33333334
      - serializedVersion: 3
        time: 3.2916667
        value: 13.212233
        inSlope: 0
        outSlope: 0
        tangentMode: 0
        weightedMode: 0
        inWeight: 0.33333334
        outWeight: 0.33333334
      m_PreInfinity: 2
      m_PostInfinity: 2
      m_RotationOrder: 4
    attribute: m_LocalScale.z
    path: 2
    classID: 4
    script: {fileID: 0}
  m_EulerEditorCurves:
  - curve:
      serializedVersion: 2
      m_Curve:
      - serializedVersion: 3
        time: 0
        value: 0.000009334667
        inSlope: -0.6166488
        outSlope: -0.6166488
        tangentMode: 0
        weightedMode: 0
        inWeight: 0.33333334
        outWeight: 0.33333334
      - serializedVersion: 3
        time: 0.9583334
        value: -8.289341
        inSlope: -10.51739
        outSlope: -10.392879
        tangentMode: 0
        weightedMode: 0
        inWeight: 0.33333334
        outWeight: 0.33333334
      - serializedVersion: 3
        time: 1.75
        value: -9.467178
        inSlope: 3.909514
        outSlope: 3.9059684
        tangentMode: 0
        weightedMode: 0
        inWeight: 0.33333334
        outWeight: 0.33333334
      - serializedVersion: 3
        time: 2.5833335
        value: -8.633494
        inSlope: 0.009211347
        outSlope: 0.009159855
        tangentMode: 0
        weightedMode: 0
        inWeight: 0.33333334
        outWeight: 0.33333334
      - serializedVersion: 3
        time: 2.7916667
        value: -8.631572
        inSlope: 0.009159855
        outSlope: 0.0090408325
        tangentMode: 0
        weightedMode: 0
        inWeight: 0.33333334
        outWeight: 0.33333334
      - serializedVersion: 3
        time: 2.9166667
        value: -9.648635
        inSlope: -16.131248
        outSlope: -16.131248
        tangentMode: 0
        weightedMode: 0
        inWeight: 0.33333334
        outWeight: 0.33333334
      - serializedVersion: 3
        time: 3.0416667
        value: -9.696096
        inSlope: 25.134659
        outSlope: 25.134659
        tangentMode: 0
        weightedMode: 0
        inWeight: 0.33333334
        outWeight: 0.33333334
      - serializedVersion: 3
        time: 3.1666667
        value: -3.849171
        inSlope: 46.47593
        outSlope: 47.769295
        tangentMode: 0
        weightedMode: 0
        inWeight: 0.33333334
        outWeight: 0.33333334
      - serializedVersion: 3
        time: 3.25
        value: -0.5018978
        inSlope: 21.182417
        outSlope: 21.453375
        tangentMode: 0
        weightedMode: 0
        inWeight: 0.33333334
        outWeight: 0.33333334
      - serializedVersion: 3
        time: 3.2916667
        value: 0.000009334667
        inSlope: 11.732704
        outSlope: 11.732704
        tangentMode: 0
        weightedMode: 0
        inWeight: 0.33333334
        outWeight: 0.33333334
      m_PreInfinity: 2
      m_PostInfinity: 2
      m_RotationOrder: 4
    attribute: localEulerAngles.x
    path: 2
    classID: 4
    script: {fileID: 0}
  - curve:
      serializedVersion: 2
      m_Curve:
      - serializedVersion: 3
        time: 0
        value: 2.5611162
        inSlope: -0.8956395
        outSlope: -0.8956395
        tangentMode: 0
        weightedMode: 0
        inWeight: 0.33333334
        outWeight: 0.33333334
      - serializedVersion: 3
        time: 0.9583334
        value: -6.734928
        inSlope: -6.736661
        outSlope: -6.99793
        tangentMode: 0
        weightedMode: 0
        inWeight: 0.33333334
        outWeight: 0.33333334
      - serializedVersion: 3
        time: 1.75
        value: -9.126033
        inSlope: -0.9082983
        outSlope: -0.9203966
        tangentMode: 0
        weightedMode: 0
        inWeight: 0.33333334
        outWeight: 0.33333334
      - serializedVersion: 3
        time: 2.5833335
        value: -9.261754
        inSlope: 0.025340648
        outSlope: 0.025337229
        tangentMode: 0
        weightedMode: 0
        inWeight: 0.33333334
        outWeight: 0.33333334
      - serializedVersion: 3
        time: 2.7916667
        value: -9.256474
        inSlope: 0.025323495
        outSlope: 0.025360107
        tangentMode: 0
        weightedMode: 0
        inWeight: 0.33333334
        outWeight: 0.33333334
      - serializedVersion: 3
        time: 2.9166667
        value: -9.09414
        inSlope: 2.8116074
        outSlope: 2.8116074
        tangentMode: 0
        weightedMode: 0
        inWeight: 0.33333334
        outWeight: 0.33333334
      - serializedVersion: 3
        time: 3.0416667
        value: -7.900312
        inSlope: 24.507511
        outSlope: 24.507511
        tangentMode: 0
        weightedMode: 0
        inWeight: 0.33333334
        outWeight: 0.33333334
      - serializedVersion: 3
        time: 3.1666667
        value: -2.3950434
        inSlope: 60.04415
        outSlope: 59.169983
        tangentMode: 0
        weightedMode: 0
        inWeight: 0.33333334
        outWeight: 0.33333334
      - serializedVersion: 3
        time: 3.25
        value: 1.8374871
        inSlope: 31.688143
        outSlope: 31.518007
        tangentMode: 0
        weightedMode: 0
        inWeight: 0.33333334
        outWeight: 0.33333334
      - serializedVersion: 3
        time: 3.2916667
        value: 2.5611162
        inSlope: 17.577747
        outSlope: 17.577747
        tangentMode: 0
        weightedMode: 0
        inWeight: 0.33333334
        outWeight: 0.33333334
      m_PreInfinity: 2
      m_PostInfinity: 2
      m_RotationOrder: 4
    attribute: localEulerAngles.y
    path: 2
    classID: 4
    script: {fileID: 0}
  - curve:
      serializedVersion: 2
      m_Curve:
      - serializedVersion: 3
        time: 0
        value: 2.5444436e-14
        inSlope: -1.8710672
        outSlope: -1.8710672
        tangentMode: 0
        weightedMode: 0
        inWeight: 0.33333334
        outWeight: 0.33333334
      - serializedVersion: 3
        time: 0.9583334
        value: -29.337427
        inSlope: -48.24447
        outSlope: -48.33576
        tangentMode: 0
        weightedMode: 0
        inWeight: 0.33333334
        outWeight: 0.33333334
      - serializedVersion: 3
        time: 1.75
        value: -62.85743
        inSlope: -25.77491
        outSlope: -25.770075
        tangentMode: 0
        weightedMode: 0
        inWeight: 0.33333334
        outWeight: 0.33333334
      - serializedVersion: 3
        time: 2.5833335
        value: -67.37927
        inSlope: -0.10250242
        outSlope: -0.10261235
        tangentMode: 0
        weightedMode: 0
        inWeight: 0.33333334
        outWeight: 0.33333334
      - serializedVersion: 3
        time: 2.7916667
        value: -67.40064
        inSlope: -0.102392614
        outSlope: -0.10253906
        tangentMode: 0
        weightedMode: 0
        inWeight: 0.33333334
        outWeight: 0.33333334
      - serializedVersion: 3
        time: 2.9166667
        value: -61.61609
        inSlope: 128.46204
        outSlope: 128.46204
        tangentMode: 0
        weightedMode: 0
        inWeight: 0.33333334
        outWeight: 0.33333334
      - serializedVersion: 3
        time: 3.0416667
        value: -38.06524
        inSlope: 218.84967
        outSlope: 218.84967
        tangentMode: 0
        weightedMode: 0
        inWeight: 0.33333334
        outWeight: 0.33333334
      - serializedVersion: 3
        time: 3.1666667
        value: -12.057726
        inSlope: 170.44633
        outSlope: 170.33171
        tangentMode: 0
        weightedMode: 0
        inWeight: 0.33333334
        outWeight: 0.33333334
      - serializedVersion: 3
        time: 3.25
        value: -1.5347613
        inSlope: 69.28431
        outSlope: 69.21935
        tangentMode: 0
        weightedMode: 0
        inWeight: 0.33333334
        outWeight: 0.33333334
      - serializedVersion: 3
        time: 3.2916667
        value: 2.5444436e-14
        inSlope: 36.931572
        outSlope: 36.931572
        tangentMode: 0
        weightedMode: 0
        inWeight: 0.33333334
        outWeight: 0.33333334
      m_PreInfinity: 2
      m_PostInfinity: 2
      m_RotationOrder: 4
    attribute: localEulerAngles.z
    path: 2
    classID: 4
    script: {fileID: 0}
  m_HasGenericRootTransform: 0
  m_HasMotionFloatCurves: 0
  m_Events: []
