%YAML 1.1
%TAG !u! tag:unity3d.com,2011:
--- !u!74 &7400000
AnimationClip:
  m_ObjectHideFlags: 0
  m_CorrespondingSourceObject: {fileID: 0}
  m_PrefabInstance: {fileID: 0}
  m_PrefabAsset: {fileID: 0}
  m_Name: Scene
  serializedVersion: 6
  m_Legacy: 0
  m_Compressed: 0
  m_UseHighQualityCurve: 1
  m_RotationCurves: []
  m_CompressedRotationCurves: []
  m_EulerCurves: []
  m_PositionCurves:
  - curve:
      serializedVersion: 2
      m_Curve:
      - serializedVersion: 3
        time: 0
        value: {x: -0, y: 0, z: 3.941762}
        inSlope: {x: -0, y: -0, z: -0}
        outSlope: {x: -0, y: -0, z: -0}
        tangentMode: 0
        weightedMode: 0
        inWeight: {x: 0.33333334, y: 0.33333334, z: 0.33333334}
        outWeight: {x: 0.33333334, y: 0.33333334, z: 0.33333334}
      - serializedVersion: 3
        time: 0.041666668
        value: {x: -0, y: 0, z: 3.941762}
        inSlope: {x: -0, y: -0, z: -0}
        outSlope: {x: 0.012629598, y: -0.0030172723, z: -0.20116426}
        tangentMode: 0
        weightedMode: 0
        inWeight: {x: 0.33333334, y: 0.33333334, z: 0.33333334}
        outWeight: {x: 0.33333334, y: 0.33333334, z: 0.33333334}
      - serializedVersion: 3
        time: 0.08333333
        value: {x: 0.0005262332, y: -0.00012571967, z: 3.9333801}
        inSlope: {x: 0.012629598, y: -0.0030172723, z: -0.20116426}
        outSlope: {x: 0.036847174, y: -0.008802968, z: -0.5869159}
        tangentMode: 0
        weightedMode: 0
        inWeight: {x: 0.33333334, y: 0.33333334, z: 0.33333334}
        outWeight: {x: 0.33333334, y: 0.33333334, z: 0.33333334}
      - serializedVersion: 3
        time: 0.125
        value: {x: 0.0020615323, y: -0.00049251004, z: 3.9089253}
        inSlope: {x: 0.036847174, y: -0.008802968, z: -0.5869159}
        outSlope: {x: 0.059502352, y: -0.014215399, z: -0.94775987}
        tangentMode: 0
        weightedMode: 0
        inWeight: {x: 0.33333334, y: 0.33333334, z: 0.33333334}
        outWeight: {x: 0.33333334, y: 0.33333334, z: 0.33333334}
      - serializedVersion: 3
        time: 0.16666666
        value: {x: 0.0045407964, y: -0.0010848182, z: 3.8694353}
        inSlope: {x: 0.059502352, y: -0.014215399, z: -0.94775987}
        outSlope: {x: 0.080595054, y: -0.01925455, z: -1.2837466}
        tangentMode: 0
        weightedMode: 0
        inWeight: {x: 0.33333334, y: 0.33333334, z: 0.33333334}
        outWeight: {x: 0.33333334, y: 0.33333334, z: 0.33333334}
      - serializedVersion: 3
        time: 0.20833333
        value: {x: 0.007898924, y: -0.0018870912, z: 3.8159459}
        inSlope: {x: 0.080595054, y: -0.01925455, z: -1.2837466}
        outSlope: {x: 0.10012539, y: -0.023920443, z: -1.5948089}
        tangentMode: 0
        weightedMode: 0
        inWeight: {x: 0.33333334, y: 0.33333334, z: 0.33333334}
        outWeight: {x: 0.33333334, y: 0.33333334, z: 0.33333334}
      - serializedVersion: 3
        time: 0.24999999
        value: {x: 0.012070814, y: -0.002883776, z: 3.7494955}
        inSlope: {x: 0.10012539, y: -0.023920443, z: -1.5948089}
        outSlope: {x: 0.11809318, y: -0.028213037, z: -1.8810186}
        tangentMode: 0
        weightedMode: 0
        inWeight: {x: 0.33333334, y: 0.33333334, z: 0.33333334}
        outWeight: {x: 0.33333334, y: 0.33333334, z: 0.33333334}
      - serializedVersion: 3
        time: 0.2916667
        value: {x: 0.016991366, y: -0.00405932, z: 3.6711197}
        inSlope: {x: 0.11809318, y: -0.028213037, z: -1.8810186}
        outSlope: {x: 0.13449873, y: -0.03213239, z: -2.142323}
        tangentMode: 0
        weightedMode: 0
        inWeight: {x: 0.33333334, y: 0.33333334, z: 0.33333334}
        outWeight: {x: 0.33333334, y: 0.33333334, z: 0.33333334}
      - serializedVersion: 3
        time: 0.33333334
        value: {x: 0.022595478, y: -0.005398169, z: 3.5818563}
        inSlope: {x: 0.13449873, y: -0.03213239, z: -2.142323}
        outSlope: {x: 0.14934176, y: -0.035678472, z: -2.3787522}
        tangentMode: 0
        weightedMode: 0
        inWeight: {x: 0.33333334, y: 0.33333334, z: 0.33333334}
        outWeight: {x: 0.33333334, y: 0.33333334, z: 0.33333334}
      - serializedVersion: 3
        time: 0.4166667
        value: {x: 0.03559398, y: -0.008503574, z: 3.374813}
        inSlope: {x: 0.16262221, y: -0.03885123, z: -2.5902832}
        outSlope: {x: 0.1743405, y: -0.041650806, z: -2.7769382}
        tangentMode: 0
        weightedMode: 0
        inWeight: {x: 0.33333334, y: 0.33333334, z: 0.33333334}
        outWeight: {x: 0.33333334, y: 0.33333334, z: 0.33333334}
      - serializedVersion: 3
        time: 0.7083333
        value: {x: 0.09305106, y: -0.022230348, z: 2.459624}
        inSlope: {x: 0.2118388, y: -0.050609283, z: -3.374203}
        outSlope: {x: 0.21261968, y: -0.050795827, z: -3.3866541}
        tangentMode: 0
        weightedMode: 0
        inWeight: {x: 0.33333334, y: 0.33333334, z: 0.33333334}
        outWeight: {x: 0.33333334, y: 0.33333334, z: 0.33333334}
      - serializedVersion: 3
        time: 1.125
        value: {x: 0.1723658, y: -0.041179027, z: 1.196281}
        inSlope: {x: 0.14934233, y: -0.035678778, z: -2.3787541}
        outSlope: {x: 0.13449787, y: -0.03213218, z: -2.1423128}
        tangentMode: 0
        weightedMode: 0
        inWeight: {x: 0.33333334, y: 0.33333334, z: 0.33333334}
        outWeight: {x: 0.33333334, y: 0.33333334, z: 0.33333334}
      - serializedVersion: 3
        time: 1.25
        value: {x: 0.18706235, y: -0.04469009, z: 0.96219105}
        inSlope: {x: 0.10012589, y: -0.02392032, z: -1.5948116}
        outSlope: {x: 0.0805945, y: -0.019254647, z: -1.2837371}
        tangentMode: 0
        weightedMode: 0
        inWeight: {x: 0.33333334, y: 0.33333334, z: 0.33333334}
        outWeight: {x: 0.33333334, y: 0.33333334, z: 0.33333334}
      - serializedVersion: 3
        time: 1.3333334
        value: {x: 0.1928997, y: -0.04608467, z: 0.86921215}
        inSlope: {x: 0.059501823, y: -0.014215185, z: -0.9477548}
        outSlope: {x: 0.036847506, y: -0.008803287, z: -0.5869122}
        tangentMode: 0
        weightedMode: 0
        inWeight: {x: 0.33333334, y: 0.33333334, z: 0.33333334}
        outWeight: {x: 0.33333334, y: 0.33333334, z: 0.33333334}
      - serializedVersion: 3
        time: 1.4166667
        value: {x: 0.19496126, y: -0.04657719, z: 0.83637524}
        inSlope: {x: 0.012629962, y: -0.003017211, z: -0.20117387}
        outSlope: {x: -0, y: -0, z: -0}
        tangentMode: 0
        weightedMode: 0
        inWeight: {x: 0.33333334, y: 0.33333334, z: 0.33333334}
        outWeight: {x: 0.33333334, y: 0.33333334, z: 0.33333334}
      - serializedVersion: 3
        time: 3.4583333
        value: {x: 0.19496126, y: -0.04657719, z: 0.83637524}
        inSlope: {x: -0, y: -0, z: -0}
        outSlope: {x: -0, y: -0, z: -0}
        tangentMode: 0
        weightedMode: 0
        inWeight: {x: 0.33333334, y: 0.33333334, z: 0.33333334}
        outWeight: {x: 0.33333334, y: 0.33333334, z: 0.33333334}
      - serializedVersion: 3
        time: 4.125
        value: {x: 0.19496126, y: -0.04657719, z: 0.83637524}
        inSlope: {x: -0, y: -0, z: -0}
        outSlope: {x: -0, y: -0, z: -0}
        tangentMode: 0
        weightedMode: 0
        inWeight: {x: 0.33333334, y: 0.33333334, z: 0.33333334}
        outWeight: {x: 0.33333334, y: 0.33333334, z: 0.33333334}
      m_PreInfinity: 2
      m_PostInfinity: 2
      m_RotationOrder: 4
    path: 1
  m_ScaleCurves: []
  m_FloatCurves: []
  m_PPtrCurves: []
  m_SampleRate: 24
  m_WrapMode: 0
  m_Bounds:
    m_Center: {x: 0, y: 0, z: 0}
    m_Extent: {x: 0, y: 0, z: 0}
  m_ClipBindingConstant:
    genericBindings:
    - serializedVersion: 2
      path: 2212294583
      attribute: 1
      script: {fileID: 0}
      typeID: 4
      customType: 0
      isPPtrCurve: 0
    pptrCurveMapping: []
  m_AnimationClipSettings:
    serializedVersion: 2
    m_AdditiveReferencePoseClip: {fileID: 0}
    m_AdditiveReferencePoseTime: 0
    m_StartTime: 0
    m_StopTime: 4.125
    m_OrientationOffsetY: 0
    m_Level: 0
    m_CycleOffset: 0
    m_HasAdditiveReferencePose: 0
    m_LoopTime: 1
    m_LoopBlend: 0
    m_LoopBlendOrientation: 0
    m_LoopBlendPositionY: 0
    m_LoopBlendPositionXZ: 0
    m_KeepOriginalOrientation: 0
    m_KeepOriginalPositionY: 1
    m_KeepOriginalPositionXZ: 0
    m_HeightFromFeet: 0
    m_Mirror: 0
  m_EditorCurves: []
  m_EulerEditorCurves: []
  m_HasGenericRootTransform: 0
  m_HasMotionFloatCurves: 0
  m_Events: []
