%YAML 1.1
%TAG !u! tag:unity3d.com,2011:
--- !u!1045 &1
EditorBuildSettings:
  m_ObjectHideFlags: 0
  serializedVersion: 2
  m_Scenes:
  - enabled: 0
    path: Assets/_Scene/Wira/LoadingScreen/SceneWira_LoadingScreen.unity
    guid: b7b64adf0c91fc04f8434a0bbd31fa99
  - enabled: 1
    path: Assets/_Scene/Xime/LoadingScreen/SceneXime_LoadingScreen.unity
    guid: ba066691043232e4fac92df99cac7b26
  - enabled: 0
    path: Assets/_Scene/Wira/MainMenu/SceneWira_MainMenu.unity
    guid: 3e6d0beef8c1e4f4ca7b6505ff6f5085
  - enabled: 1
    path: Assets/_Scene/Xime/Menu/SceneXime_Menu.unity
    guid: 97b40a28c3c036e419c60bcef535e06b
  - enabled: 0
    path: Assets/_Scene/Wira/AR/SceneWira_ComponentAR.unity
    guid: 17eac09076a1fc14d8eed10c14f5e1be
  - enabled: 0
    path: Assets/_Scene/Wira/AR/SceneWira_AssemblyAR.unity
    guid: ad6e3c6eb34352840827a18fb1e1baf9
  - enabled: 0
    path: Assets/_Scene/Wira/Inspection/SceneWira_Inspection.unity
    guid: c85fe2e23e7c6084d8134bc4586e15dd
  - enabled: 0
    path: Assets/_Scene/Wira/Assembly/SceneWira_Assembly.unity
    guid: f04946acdd8586b4a8ec9f033c379588
  - enabled: 0
    path: Assets/_Scene/Wira/Assembly/SceneWira_AssemblySequence.unity
    guid: 56dd94933611f3c4098159d0e6f81378
  - enabled: 0
    path: Assets/_Scene/Wira/Assembly/SceneWira_ClutchDanger.unity
    guid: 7614ac779db1e1242a00ffbb96225b40
  - enabled: 0
    path: Assets/_Scene/Wira/Assembly/SceneWira_CorrosionProtectiveTreatment.unity
    guid: c5e98fe02d36e4c44ae90e036be208e9
  - enabled: 0
    path: Assets/_Scene/Wira/Assembly/SceneWira_NonDestructiveInspection.unity
    guid: ea4c337e6d78e464fb68fd46a1cfd6c7
  - enabled: 0
    path: Assets/_Scene/Wira/Task Card/SceneWira_TaskCard.unity
    guid: d229783e33e7fee43a4599ef4079a719
  - enabled: 0
    path: Assets/_Scene/Wira/Tools/SceneWira_Tools.unity
    guid: 222c5c0070d908a40ace846a54e0ea1b
  - enabled: 1
    path: Assets/_Scene/Xime/Inspection/SceneXime_ARInspection.unity
    guid: 0163daea3d73a1446bc2a321526095a4
  - enabled: 1
    path: Assets/_Scene/Xime/Inspection/SceneXime_Inspection.unity
    guid: 36716f5306229c84796926324b57e00b
  - enabled: 1
    path: Assets/_Scene/Xime/Inspection/DocumentInspection/SceneXime_HSR.unity
    guid: fa4d539c08706df4d9baad83a8e11864
  - enabled: 1
    path: Assets/_Scene/Xime/Inspection/DocumentInspection/SceneXime_TaskNo1.unity
    guid: 55ba1b9cfdffccd49a45857cbe5a0e97
  - enabled: 1
    path: Assets/_Scene/Xime/Inspection/DocumentInspection/SceneXime_TaskNo2.unity
    guid: 5d733ea1a70444141aadb4d1fee5a98a
  - enabled: 1
    path: Assets/_Scene/Xime/Inspection/DocumentInspection/SceneXime_TaskNo3.unity
    guid: 0613afd3861f5c34c9334cb5d2d63b9f
  - enabled: 1
    path: Assets/_Scene/Xime/Inspection/DocumentInspection/SceneXime_TaskNo4.unity
    guid: 6c7ccb455caab204ab089596c8325065
  - enabled: 1
    path: Assets/_Scene/Xime/Inspection/DocumentInspection/SceneXime_TaskNo6.unity
    guid: 60dee1e0279140c40830c0eabb95bf15
  - enabled: 1
    path: Assets/_Scene/Xime/Inspection/DocumentInspection/SceneXime_TaskNo7.unity
    guid: 4f623dba5a59d5e49a00fa497eea61d5
  - enabled: 1
    path: Assets/_Scene/Xime/Inspection/DocumentInspection/SceneXime_TaskNo8.unity
    guid: 7e08ed26aa1c74d4ba7eb24dcd41aa0d
  - enabled: 1
    path: Assets/_Scene/Xime/Inspection/DocumentInspection/SceneXime_TaskNo9.unity
    guid: bd9031843a9dfaa45bd2dd44ec1793fe
  - enabled: 1
    path: Assets/_Scene/Xime/Inspection/DocumentInspection/SceneXime_TaskNo10.unity
    guid: f0e0b6ec26fc15d449005e3a85d39ff3
  - enabled: 1
    path: Assets/_Scene/Xime/Introduction/SceneXime_Introduction.unity
    guid: fc8e7cff78297e04fa86db82a59f8bce
  - enabled: 1
    path: Assets/_Scene/Xime/MaterialReq/SceneXime_MaterialReq.unity
    guid: 947eb6df2c5875643a8affc0e45324ab
  - enabled: 1
    path: Assets/_Scene/Xime/MaterialReq/SceneXime_Grease.unity
    guid: d7e581882fd2b004d878ce9bf557f49e
  - enabled: 1
    path: Assets/_Scene/Xime/MaterialReq/SceneXime_IndiaStone.unity
    guid: e955e3ea086378f488532b638df4acaf
  - enabled: 1
    path: Assets/_Scene/Xime/MaterialReq/SceneXime_StainlessSteelWool.unity
    guid: dd2caf41ca659734e948df54330b1ff7
  - enabled: 1
    path: Assets/_Scene/Xime/Reference/SceneXime_Reference.unity
    guid: 7513e9fd0da31cc4b8bfb560f81a86bd
  - enabled: 1
    path: Assets/_Scene/Xime/Reference/SceneXime_ReferenceCRO.unity
    guid: 650035c39f6a94b4b8bd8f86ef1c0d2c
  - enabled: 1
    path: Assets/_Scene/Xime/SpecialTool/SceneXime_SpecialTools.unity
    guid: 67c2747c87f520c4f9d83cb7eb3b81d0
  - enabled: 1
    path: Assets/_Scene/Xime/SpecialTool/SceneXime_DialIndicator_1.unity
    guid: 0c8956fe931a7dd4a9ea6094b4ab12ef
  - enabled: 1
    path: Assets/_Scene/Xime/SpecialTool/SceneXime_DialIndicator_2.unity
    guid: 556bedd0e1bb3d74fbbaa488d8383a4a
  - enabled: 1
    path: Assets/_Scene/Xime/SpecialTool/SceneXime_Spherical.unity
    guid: 25e1e31f88e7b6d42be3f4f4fa0a7d17
  - enabled: 1
    path: Assets/_Scene/Xime/SpecialTool/SceneXime_Spline_1.unity
    guid: 4102eebba0585fd438eac0d9230472e3
  - enabled: 1
    path: Assets/_Scene/Xime/SpecialTool/SceneXime_Spline_2.unity
    guid: 52b71db0070ce5040a29a787e510d92c
  - enabled: 1
    path: Assets/_Scene/Xime/SpecialTool/SceneXime_Spline_3.unity
    guid: 9cce69f9c9ee4be4c9097a6b7a28e550
  - enabled: 1
    path: Assets/_Scene/Xime/SpecialTool/SceneXime_Spline_4.unity
    guid: 1d8fe949f80987a4089f9b098cb68220
  - enabled: 1
    path: Assets/_Scene/Xime/SpecialTool/SceneXime_Vblocks.unity
    guid: ff9a5f5075ec7aa4d94ef18f1f4d3d80
  - enabled: 1
    path: Assets/_Scene/Xime/SpecialTool/SceneXime_Workaid.unity
    guid: 2e7f631343dd4794f90a70b227379599
  - enabled: 1
    path: Assets/_Scene/Xime/TaskCard/SceneXime_TaskCard.unity
    guid: 62dae9889d31a38489eca522cd0e3278
  - enabled: 1
    path: Assets/_Scene/Xime/Inspection/SparePartScenes/SceneXime_BearingLiner.unity
    guid: adcf536ce39ed064dae1b2de2d31f43a
  - enabled: 1
    path: Assets/_Scene/Xime/Inspection/SparePartScenes/SceneXime_LockingPlateAB.unity
    guid: 276663acff4d6af479a5e7fd501a7ed6
  - enabled: 1
    path: Assets/_Scene/Xime/Inspection/SparePartScenes/SceneXime_LockingPlateL.unity
    guid: 76a8083b703d5854babb021983c4d320
  - enabled: 1
    path: Assets/_Scene/Xime/Inspection/SparePartScenes/SceneXime_MastBearing_1.unity
    guid: 3b142e362c22996458e22ceeeb6db663
  - enabled: 1
    path: Assets/_Scene/Xime/Inspection/SparePartScenes/SceneXime_MastBearing_2.unity
    guid: 28f0b6309b66a1548b61e1cbf5839dd6
  - enabled: 1
    path: Assets/_Scene/Xime/Inspection/SparePartScenes/SceneXime_MastBearing_3.unity
    guid: b3a3c4e8cb136644ca596c6088ff2a2e
  - enabled: 1
    path: Assets/_Scene/Xime/Inspection/SparePartScenes/SceneXime_MastNut.unity
    guid: 8e5de7716973edd40adf8b3ad58d9a92
  - enabled: 1
    path: Assets/_Scene/Xime/Inspection/SparePartScenes/SceneXime_MastPoleAB.unity
    guid: 41037c9c4b9edd24bade0c0cb41760c5
  - enabled: 1
    path: Assets/_Scene/Xime/Inspection/SparePartScenes/SceneXime_MastPoleL.unity
    guid: 8ccd51d65a1492043b47bbce23250353
  - enabled: 1
    path: Assets/_Scene/Xime/Inspection/SparePartScenes/SceneXime_MastPoleL_101.unity
    guid: e614743aaf3556843be8a25736ecc899
  - enabled: 1
    path: Assets/_Scene/Xime/Inspection/SparePartScenes/SceneXime_SealPlate.unity
    guid: 8b2133f98673b4a4dab50fe137c0850c
  - enabled: 1
    path: Assets/_Scene/Xime/Inspection/SparePartScenes/SceneXime_SealPlateGerigi.unity
    guid: 304d33391cec7bc4099b28a9e3688b9b
  - enabled: 1
    path: Assets/_Scene/Xime/Inspection/SparePartScenes/SceneXime_Spacer.unity
    guid: c83c49ded358a454b95f39b2ff0df8e1
  m_configObjects: {}
