%YAML 1.1
%TAG !u! tag:unity3d.com,2011:
--- !u!74 &7400000
AnimationClip:
  m_ObjectHideFlags: 0
  m_CorrespondingSourceObject: {fileID: 0}
  m_PrefabInstance: {fileID: 0}
  m_PrefabAsset: {fileID: 0}
  m_Name: Scene
  serializedVersion: 6
  m_Legacy: 0
  m_Compressed: 0
  m_UseHighQualityCurve: 1
  m_RotationCurves:
  - curve:
      serializedVersion: 2
      m_Curve:
      - serializedVersion: 3
        time: 0
        value: {x: 0.0011653157, y: -0.0004234431, z: -0.0013281584, w: 0.9999984}
        inSlope: {x: 0.0817445, y: -0.030073324, z: -0.09286178, w: -0.00056934357}
        outSlope: {x: 0.0817445, y: -0.030073324, z: -0.09286178, w: -0.00056934357}
        tangentMode: 0
        weightedMode: 0
        inWeight: {x: 0.33333334, y: 0.33333334, z: 0.33333334, w: 0.33333334}
        outWeight: {x: 0.33333334, y: 0.33333334, z: 0.33333334, w: 0.33333334}
      - serializedVersion: 3
        time: 0.5416667
        value: {x: 0.17430441, y: -0.090019666, z: -0.17660235, w: 0.9645341}
        inSlope: {x: 0.48646504, y: -0.32112685, z: -0.43683934, w: -0.1981638}
        outSlope: {x: 0.48646504, y: -0.32112685, z: -0.43683934, w: -0.1981638}
        tangentMode: 0
        weightedMode: 0
        inWeight: {x: 0.33333334, y: 0.33333334, z: 0.33333334, w: 0.33333334}
        outWeight: {x: 0.33333334, y: 0.33333334, z: 0.33333334, w: 0.33333334}
      - serializedVersion: 3
        time: 0.9583333
        value: {x: 0.36209896, y: -0.24420558, z: -0.3239983, w: 0.8392098}
        inSlope: {x: 0.34659243, y: -0.34812623, z: -0.23205999, w: -0.3397635}
        outSlope: {x: 0.34659243, y: -0.34812623, z: -0.23205999, w: -0.3397635}
        tangentMode: 0
        weightedMode: 0
        inWeight: {x: 0.33333334, y: 0.33333334, z: 0.33333334, w: 0.33333334}
        outWeight: {x: 0.33333334, y: 0.33333334, z: 0.33333334, w: 0.33333334}
      - serializedVersion: 3
        time: 1.3333334
        value: {x: 0.4308631, y: -0.31994268, z: -0.3666201, w: 0.7599891}
        inSlope: {x: 0.0108132465, y: -0.014591589, z: -0.0058440026, w: -0.0150597235}
        outSlope: {x: 0.0108132465, y: -0.014591589, z: -0.0058440026, w: -0.0150597235}
        tangentMode: 0
        weightedMode: 0
        inWeight: {x: 0.33333334, y: 0.33333334, z: 0.33333334, w: 0.33333334}
        outWeight: {x: 0.33333334, y: 0.33333334, z: 0.33333334, w: 0.33333334}
      - serializedVersion: 3
        time: 1.8750001
        value: {x: 0.4309091, y: -0.31986895, z: -0.36667165, w: 0.7599692}
        inSlope: {x: 0.00008475776, y: 0.0001355409, z: -0.00009477134, w: -0.000036478028}
        outSlope: {x: 0.00008475776, y: 0.0001355409, z: -0.00009477134, w: -0.000036478028}
        tangentMode: 0
        weightedMode: 0
        inWeight: {x: 0.33333334, y: 0.33333334, z: 0.33333334, w: 0.33333334}
        outWeight: {x: 0.33333334, y: 0.33333334, z: 0.33333334, w: 0.33333334}
      - serializedVersion: 3
        time: 1.9166667
        value: {x: 0.4309126, y: -0.31986332, z: -0.3666756, w: 0.7599676}
        inSlope: {x: -0.5627484, y: -0.27040628, z: 0.09183213, w: 0.22496817}
        outSlope: {x: -0.5627484, y: -0.27040628, z: 0.09183213, w: 0.22496817}
        tangentMode: 0
        weightedMode: 0
        inWeight: {x: 0.33333334, y: 0.33333334, z: 0.33333334, w: 0.33333334}
        outWeight: {x: 0.33333334, y: 0.33333334, z: 0.33333334, w: 0.33333334}
      - serializedVersion: 3
        time: 1.9583334
        value: {x: 0.38401344, y: -0.3424028, z: -0.35901898, w: 0.7787165}
        inSlope: {x: -1.6938691, y: -0.8520998, z: 0.06614877, w: 0.4263981}
        outSlope: {x: -1.6938691, y: -0.8520998, z: 0.06614877, w: 0.4263981}
        tangentMode: 0
        weightedMode: 0
        inWeight: {x: 0.33333334, y: 0.33333334, z: 0.33333334, w: 0.33333334}
        outWeight: {x: 0.33333334, y: 0.33333334, z: 0.33333334, w: 0.33333334}
      - serializedVersion: 3
        time: 2
        value: {x: 0.28975672, y: -0.3908717, z: -0.3611632, w: 0.7955008}
        inSlope: {x: -1.7590905, y: -0.9106264, z: -0.15678877, w: 0.18175685}
        outSlope: {x: -1.7590905, y: -0.9106264, z: -0.15678877, w: 0.18175685}
        tangentMode: 0
        weightedMode: 0
        inWeight: {x: 0.33333334, y: 0.33333334, z: 0.33333334, w: 0.33333334}
        outWeight: {x: 0.33333334, y: 0.33333334, z: 0.33333334, w: 0.33333334}
      - serializedVersion: 3
        time: 2.0416667
        value: {x: 0.23742229, y: -0.41828847, z: -0.37208474, w: 0.79386294}
        inSlope: {x: 0.00000500679, y: 0.000002592802, z: 0.0000011175871, w: 0.00000011175871}
        outSlope: {x: 0.00000500679, y: 0.000002592802, z: 0.0000011175871, w: 0.00000011175871}
        tangentMode: 0
        weightedMode: 0
        inWeight: {x: 0.33333334, y: 0.33333334, z: 0.33333334, w: 0.33333334}
        outWeight: {x: 0.33333334, y: 0.33333334, z: 0.33333334, w: 0.33333334}
      - serializedVersion: 3
        time: 2.0833333
        value: {x: 0.28975683, y: -0.39087164, z: -0.36116317, w: 0.7955008}
        inSlope: {x: 1.7590963, y: 0.9106287, z: 0.15679096, w: -0.18175675}
        outSlope: {x: 1.7590963, y: 0.9106287, z: 0.15679096, w: -0.18175675}
        tangentMode: 0
        weightedMode: 0
        inWeight: {x: 0.33333334, y: 0.33333334, z: 0.33333334, w: 0.33333334}
        outWeight: {x: 0.33333334, y: 0.33333334, z: 0.33333334, w: 0.33333334}
      - serializedVersion: 3
        time: 2.125
        value: {x: 0.38401362, y: -0.34240276, z: -0.35901886, w: 0.7787165}
        inSlope: {x: 1.693864, y: 0.8520975, z: -0.06614886, w: -0.42639673}
        outSlope: {x: 1.693864, y: 0.8520975, z: -0.06614886, w: -0.42639673}
        tangentMode: 0
        weightedMode: 0
        inWeight: {x: 0.33333334, y: 0.33333334, z: 0.33333334, w: 0.33333334}
        outWeight: {x: 0.33333334, y: 0.33333334, z: 0.33333334, w: 0.33333334}
      - serializedVersion: 3
        time: 2.1666667
        value: {x: 0.43091244, y: -0.31986338, z: -0.3666756, w: 0.7599677}
        inSlope: {x: -0.000005364418, y: -0.0000019073486, z: -0.00000090152025, w: 0.000001296401}
        outSlope: {x: -0.000005364418, y: -0.0000019073486, z: -0.00000090152025,
          w: 0.000001296401}
        tangentMode: 0
        weightedMode: 0
        inWeight: {x: 0.33333334, y: 0.33333334, z: 0.33333334, w: 0.33333334}
        outWeight: {x: 0.33333334, y: 0.33333334, z: 0.33333334, w: 0.33333334}
      - serializedVersion: 3
        time: 2.2083333
        value: {x: 0.38401344, y: -0.3424028, z: -0.35901898, w: 0.7787165}
        inSlope: {x: -1.6938686, y: -0.8520998, z: 0.06614904, w: 0.42639804}
        outSlope: {x: -1.6938686, y: -0.8520998, z: 0.06614904, w: 0.42639804}
        tangentMode: 0
        weightedMode: 0
        inWeight: {x: 0.33333334, y: 0.33333334, z: 0.33333334, w: 0.33333334}
        outWeight: {x: 0.33333334, y: 0.33333334, z: 0.33333334, w: 0.33333334}
      - serializedVersion: 3
        time: 2.25
        value: {x: 0.28975672, y: -0.3908717, z: -0.3611632, w: 0.7955008}
        inSlope: {x: -1.7590905, y: -0.9106264, z: -0.15678877, w: 0.18175685}
        outSlope: {x: -1.7590905, y: -0.9106264, z: -0.15678877, w: 0.18175685}
        tangentMode: 0
        weightedMode: 0
        inWeight: {x: 0.33333334, y: 0.33333334, z: 0.33333334, w: 0.33333334}
        outWeight: {x: 0.33333334, y: 0.33333334, z: 0.33333334, w: 0.33333334}
      - serializedVersion: 3
        time: 2.2916667
        value: {x: 0.23742229, y: -0.41828847, z: -0.37208474, w: 0.79386294}
        inSlope: {x: 0.00000500679, y: 0.000002592802, z: 0.0000011175871, w: 0.00000011175871}
        outSlope: {x: 0.00000500679, y: 0.000002592802, z: 0.0000011175871, w: 0.00000011175871}
        tangentMode: 0
        weightedMode: 0
        inWeight: {x: 0.33333334, y: 0.33333334, z: 0.33333334, w: 0.33333334}
        outWeight: {x: 0.33333334, y: 0.33333334, z: 0.33333334, w: 0.33333334}
      - serializedVersion: 3
        time: 2.3333333
        value: {x: 0.28975683, y: -0.39087164, z: -0.36116317, w: 0.7955008}
        inSlope: {x: 1.7590963, y: 0.9106287, z: 0.15679096, w: -0.18175675}
        outSlope: {x: 1.7590963, y: 0.9106287, z: 0.15679096, w: -0.18175675}
        tangentMode: 0
        weightedMode: 0
        inWeight: {x: 0.33333334, y: 0.33333334, z: 0.33333334, w: 0.33333334}
        outWeight: {x: 0.33333334, y: 0.33333334, z: 0.33333334, w: 0.33333334}
      - serializedVersion: 3
        time: 2.375
        value: {x: 0.38401362, y: -0.34240276, z: -0.35901886, w: 0.7787165}
        inSlope: {x: 1.693864, y: 0.8520975, z: -0.06614886, w: -0.42639673}
        outSlope: {x: 1.693864, y: 0.8520975, z: -0.06614886, w: -0.42639673}
        tangentMode: 0
        weightedMode: 0
        inWeight: {x: 0.33333334, y: 0.33333334, z: 0.33333334, w: 0.33333334}
        outWeight: {x: 0.33333334, y: 0.33333334, z: 0.33333334, w: 0.33333334}
      - serializedVersion: 3
        time: 2.4166667
        value: {x: 0.43091244, y: -0.31986338, z: -0.3666756, w: 0.7599677}
        inSlope: {x: -0.000005364418, y: -0.0000019073486, z: -0.00000090152025, w: 0.000001296401}
        outSlope: {x: -0.000005364418, y: -0.0000019073486, z: -0.00000090152025,
          w: 0.000001296401}
        tangentMode: 0
        weightedMode: 0
        inWeight: {x: 0.33333334, y: 0.33333334, z: 0.33333334, w: 0.33333334}
        outWeight: {x: 0.33333334, y: 0.33333334, z: 0.33333334, w: 0.33333334}
      - serializedVersion: 3
        time: 2.4583333
        value: {x: 0.38401344, y: -0.3424028, z: -0.35901898, w: 0.7787165}
        inSlope: {x: -1.6938686, y: -0.8520998, z: 0.06614904, w: 0.42639804}
        outSlope: {x: -1.6938686, y: -0.8520998, z: 0.06614904, w: 0.42639804}
        tangentMode: 0
        weightedMode: 0
        inWeight: {x: 0.33333334, y: 0.33333334, z: 0.33333334, w: 0.33333334}
        outWeight: {x: 0.33333334, y: 0.33333334, z: 0.33333334, w: 0.33333334}
      - serializedVersion: 3
        time: 2.5
        value: {x: 0.28975672, y: -0.3908717, z: -0.3611632, w: 0.7955008}
        inSlope: {x: -1.7590905, y: -0.9106264, z: -0.15678877, w: 0.18175685}
        outSlope: {x: -1.7590905, y: -0.9106264, z: -0.15678877, w: 0.18175685}
        tangentMode: 0
        weightedMode: 0
        inWeight: {x: 0.33333334, y: 0.33333334, z: 0.33333334, w: 0.33333334}
        outWeight: {x: 0.33333334, y: 0.33333334, z: 0.33333334, w: 0.33333334}
      - serializedVersion: 3
        time: 2.5416667
        value: {x: 0.23742229, y: -0.41828847, z: -0.37208474, w: 0.79386294}
        inSlope: {x: 0.00000500679, y: 0.000002592802, z: 0.0000011175871, w: 0.00000011175871}
        outSlope: {x: 0.00000500679, y: 0.000002592802, z: 0.0000011175871, w: 0.00000011175871}
        tangentMode: 0
        weightedMode: 0
        inWeight: {x: 0.33333334, y: 0.33333334, z: 0.33333334, w: 0.33333334}
        outWeight: {x: 0.33333334, y: 0.33333334, z: 0.33333334, w: 0.33333334}
      - serializedVersion: 3
        time: 2.5833333
        value: {x: 0.28975683, y: -0.39087164, z: -0.36116317, w: 0.7955008}
        inSlope: {x: 1.7590963, y: 0.9106287, z: 0.15679096, w: -0.18175675}
        outSlope: {x: 1.7590963, y: 0.9106287, z: 0.15679096, w: -0.18175675}
        tangentMode: 0
        weightedMode: 0
        inWeight: {x: 0.33333334, y: 0.33333334, z: 0.33333334, w: 0.33333334}
        outWeight: {x: 0.33333334, y: 0.33333334, z: 0.33333334, w: 0.33333334}
      - serializedVersion: 3
        time: 2.625
        value: {x: 0.38401362, y: -0.34240276, z: -0.35901886, w: 0.7787165}
        inSlope: {x: 1.693864, y: 0.8520975, z: -0.06614886, w: -0.42639673}
        outSlope: {x: 1.693864, y: 0.8520975, z: -0.06614886, w: -0.42639673}
        tangentMode: 0
        weightedMode: 0
        inWeight: {x: 0.33333334, y: 0.33333334, z: 0.33333334, w: 0.33333334}
        outWeight: {x: 0.33333334, y: 0.33333334, z: 0.33333334, w: 0.33333334}
      - serializedVersion: 3
        time: 2.6666667
        value: {x: 0.43091244, y: -0.31986338, z: -0.3666756, w: 0.7599677}
        inSlope: {x: 0.0026189089, y: -0.010230452, z: -0.04841889, w: -0.028287187}
        outSlope: {x: 0.0026189089, y: -0.010230452, z: -0.04841889, w: -0.028287187}
        tangentMode: 0
        weightedMode: 0
        inWeight: {x: 0.33333334, y: 0.33333334, z: 0.33333334, w: 0.33333334}
        outWeight: {x: 0.33333334, y: 0.33333334, z: 0.33333334, w: 0.33333334}
      - serializedVersion: 3
        time: 2.7083333
        value: {x: 0.38423213, y: -0.34325516, z: -0.3630538, w: 0.77635914}
        inSlope: {x: -1.663756, y: -0.8474293, z: -0.030171681, w: 0.3733117}
        outSlope: {x: -1.663756, y: -0.8474293, z: -0.030171681, w: 0.3733117}
        tangentMode: 0
        weightedMode: 0
        inWeight: {x: 0.33333334, y: 0.33333334, z: 0.33333334, w: 0.33333334}
        outWeight: {x: 0.33333334, y: 0.33333334, z: 0.33333334, w: 0.33333334}
      - serializedVersion: 3
        time: 2.75
        value: {x: 0.2922661, y: -0.3904825, z: -0.36918992, w: 0.79107696}
        inSlope: {x: -1.761718, y: -0.9003998, z: -0.10837069, w: 0.21004517}
        outSlope: {x: -1.761718, y: -0.9003998, z: -0.10837069, w: 0.21004517}
        tangentMode: 0
        weightedMode: 0
        inWeight: {x: 0.33333334, y: 0.33333334, z: 0.33333334, w: 0.33333334}
        outWeight: {x: 0.33333334, y: 0.33333334, z: 0.33333334, w: 0.33333334}
      - serializedVersion: 3
        time: 2.7916667
        value: {x: 0.23742202, y: -0.41828862, z: -0.3720847, w: 0.79386294}
        inSlope: {x: -0.73902005, y: -0.38492805, z: 0.20574394, w: 0.13922773}
        outSlope: {x: -0.73902005, y: -0.38492805, z: 0.20574394, w: 0.13922773}
        tangentMode: 0
        weightedMode: 0
        inWeight: {x: 0.33333334, y: 0.33333334, z: 0.33333334, w: 0.33333334}
        outWeight: {x: 0.33333334, y: 0.33333334, z: 0.33333334, w: 0.33333334}
      - serializedVersion: 3
        time: 2.8333333
        value: {x: 0.23068102, y: -0.42255986, z: -0.35204467, w: 0.80267924}
        inSlope: {x: -0.13138178, y: -0.12175304, z: 0.54121435, w: 0.20944926}
        outSlope: {x: -0.13138178, y: -0.12175304, z: 0.54121435, w: 0.20944926}
        tangentMode: 0
        weightedMode: 0
        inWeight: {x: 0.33333334, y: 0.33333334, z: 0.33333334, w: 0.33333334}
        outWeight: {x: 0.33333334, y: 0.33333334, z: 0.33333334, w: 0.33333334}
      - serializedVersion: 3
        time: 3.2083333
        value: {x: 0.26986587, y: -0.43768468, z: 0.008949746, w: 0.8576273}
        inSlope: {x: 0.2975334, y: 0.28370488, z: 1.2076315, w: 0.03745445}
        outSlope: {x: 0.2975334, y: 0.28370488, z: 1.2076315, w: 0.03745445}
        tangentMode: 0
        weightedMode: 0
        inWeight: {x: 0.33333334, y: 0.33333334, z: 0.33333334, w: 0.33333334}
        outWeight: {x: 0.33333334, y: 0.33333334, z: 0.33333334, w: 0.33333334}
      - serializedVersion: 3
        time: 3.5416667
        value: {x: 0.39937392, y: -0.2010884, z: 0.34981772, w: 0.8232202}
        inSlope: {x: 0.4656735, y: 1.0919359, z: 0.6290467, w: -0.22862457}
        outSlope: {x: 0.4656735, y: 1.0919359, z: 0.6290467, w: -0.22862457}
        tangentMode: 0
        weightedMode: 0
        inWeight: {x: 0.33333334, y: 0.33333334, z: 0.33333334, w: 0.33333334}
        outWeight: {x: 0.33333334, y: 0.33333334, z: 0.33333334, w: 0.33333334}
      - serializedVersion: 3
        time: 3.7083333
        value: {x: 0.49981585, y: 0.029155204, z: 0.38519353, w: 0.7752161}
        inSlope: {x: 0.6667585, y: 1.472676, z: -0.16246563, w: -0.40311414}
        outSlope: {x: 0.6667585, y: 1.472676, z: -0.16246563, w: -0.40311414}
        tangentMode: 0
        weightedMode: 0
        inWeight: {x: 0.33333334, y: 0.33333334, z: 0.33333334, w: 0.33333334}
        outWeight: {x: 0.33333334, y: 0.33333334, z: 0.33333334, w: 0.33333334}
      - serializedVersion: 3
        time: 3.9166667
        value: {x: 0.5997093, y: 0.2476579, z: 0.3223718, w: 0.6892683}
        inSlope: {x: 0.16734688, y: 0.3684422, z: -0.1688543, w: -0.19248669}
        outSlope: {x: 0.16734688, y: 0.3684422, z: -0.1688543, w: -0.19248669}
        tangentMode: 0
        weightedMode: 0
        inWeight: {x: 0.33333334, y: 0.33333334, z: 0.33333334, w: 0.33333334}
        outWeight: {x: 0.33333334, y: 0.33333334, z: 0.33333334, w: 0.33333334}
      - serializedVersion: 3
        time: 4.041667
        value: {x: 0.6033501, y: 0.25569004, z: 0.3184852, w: 0.6849514}
        inSlope: {x: 0, y: 0, z: 0, w: 0}
        outSlope: {x: 0, y: 0, z: 0, w: 0}
        tangentMode: 0
        weightedMode: 0
        inWeight: {x: 0.33333334, y: 0.33333334, z: 0.33333334, w: 0.33333334}
        outWeight: {x: 0.33333334, y: 0.33333334, z: 0.33333334, w: 0.33333334}
      - serializedVersion: 3
        time: 4.1250005
        value: {x: 0.6033501, y: 0.25569004, z: 0.3184852, w: 0.6849514}
        inSlope: {x: 0, y: 0, z: 0, w: 0}
        outSlope: {x: 0, y: 0, z: 0, w: 0}
        tangentMode: 0
        weightedMode: 0
        inWeight: {x: 0.33333334, y: 0.33333334, z: 0.33333334, w: 0.33333334}
        outWeight: {x: 0.33333334, y: 0.33333334, z: 0.33333334, w: 0.33333334}
      m_PreInfinity: 2
      m_PostInfinity: 2
      m_RotationOrder: 4
    path: Paint+Brush+2
  m_CompressedRotationCurves: []
  m_EulerCurves: []
  m_PositionCurves:
  - curve:
      serializedVersion: 2
      m_Curve:
      - serializedVersion: 3
        time: 0
        value: {x: -4.639626, y: 2.3114939, z: -0.44696444}
        inSlope: {x: 1.4279823, y: 0.69051933, z: -0.057231188}
        outSlope: {x: 1.4279823, y: 0.69051933, z: -0.057231188}
        tangentMode: 0
        weightedMode: 0
        inWeight: {x: 0.33333334, y: 0.33333334, z: 0.33333334}
        outWeight: {x: 0.33333334, y: 0.33333334, z: 0.33333334}
      - serializedVersion: 3
        time: 0.16666666
        value: {x: -4.2154717, y: 2.503677, z: -0.47562933}
        inSlope: {x: 3.5520983, y: 1.5352253, z: -0.30705148}
        outSlope: {x: 4.040588, y: 1.6559083, z: -0.4309315}
        tangentMode: 0
        weightedMode: 0
        inWeight: {x: 0.33333334, y: 0.33333334, z: 0.33333334}
        outWeight: {x: 0.33333334, y: 0.33333334, z: 0.33333334}
      - serializedVersion: 3
        time: 0.2916667
        value: {x: -3.6676333, y: 2.7123413, z: -0.54836494}
        inSlope: {x: 4.6882358, y: 1.6559135, z: -0.73960555}
        outSlope: {x: 4.8474035, y: 1.535231, z: -0.9243982}
        tangentMode: 0
        weightedMode: 0
        inWeight: {x: 0.33333334, y: 0.33333334, z: 0.33333334}
        outWeight: {x: 0.33333334, y: 0.33333334, z: 0.33333334}
      - serializedVersion: 3
        time: 0.4166667
        value: {x: -3.0601087, y: 2.8757527, z: -0.6903976}
        inSlope: {x: 4.8363967, y: 1.052547, z: -1.3548912}
        outSlope: {x: 4.6662436, y: 0.6905138, z: -1.6005968}
        tangentMode: 0
        weightedMode: 0
        inWeight: {x: 0.33333334, y: 0.33333334, z: 0.33333334}
        outWeight: {x: 0.33333334, y: 0.33333334, z: 0.33333334}
      - serializedVersion: 3
        time: 0.5416666
        value: {x: -2.5155087, y: 2.907864, z: -0.9241595}
        inSlope: {x: 4.017864, y: -0.16789071, z: -2.1430886}
        outSlope: {x: 3.6460745, y: -0.48053145, z: -2.3907354}
        tangentMode: 0
        weightedMode: 0
        inWeight: {x: 0.33333334, y: 0.33333334, z: 0.33333334}
        outWeight: {x: 0.33333334, y: 0.33333334, z: 0.33333334}
      - serializedVersion: 3
        time: 0.7916666
        value: {x: -1.810221, y: 2.6429949, z: -1.6202399}
        inSlope: {x: 2.0559645, y: -1.5226321, z: -3.049035}
        outSlope: {x: 1.7917119, y: -1.6268512, z: -3.064692}
        tangentMode: 0
        weightedMode: 0
        inWeight: {x: 0.33333334, y: 0.33333334, z: 0.33333334}
        outWeight: {x: 0.33333334, y: 0.33333334, z: 0.33333334}
      - serializedVersion: 3
        time: 1.0833334
        value: {x: -1.4770423, y: 2.158366, z: -2.4376085}
        inSlope: {x: 0.5825506, y: -1.5226436, z: -2.346802}
        outSlope: {x: 0.44375652, y: -1.3836893, z: -2.0918274}
        tangentMode: 0
        weightedMode: 0
        inWeight: {x: 0.33333334, y: 0.33333334, z: 0.33333334}
        outWeight: {x: 0.33333334, y: 0.33333334, z: 0.33333334}
      - serializedVersion: 3
        time: 1.3333334
        value: {x: -1.4267131, y: 1.9499441, z: -2.7448256}
        inSlope: {x: 0.04320721, y: -0.16789357, z: -0.23704742}
        outSlope: {x: -0, y: -0, z: -0}
        tangentMode: 0
        weightedMode: 0
        inWeight: {x: 0.33333334, y: 0.33333334, z: 0.33333334}
        outWeight: {x: 0.33333334, y: 0.33333334, z: 0.33333334}
      - serializedVersion: 3
        time: 3.375
        value: {x: -1.4267131, y: 1.9499441, z: -2.7448256}
        inSlope: {x: -0, y: -0, z: -0}
        outSlope: {x: -0, y: -0, z: -0}
        tangentMode: 0
        weightedMode: 0
        inWeight: {x: 0.33333334, y: 0.33333334, z: 0.33333334}
        outWeight: {x: 0.33333334, y: 0.33333334, z: 0.33333334}
      - serializedVersion: 3
        time: 4.125
        value: {x: -1.4267131, y: 1.9499441, z: -2.7448256}
        inSlope: {x: -0, y: -0, z: -0}
        outSlope: {x: -0, y: -0, z: -0}
        tangentMode: 0
        weightedMode: 0
        inWeight: {x: 0.33333334, y: 0.33333334, z: 0.33333334}
        outWeight: {x: 0.33333334, y: 0.33333334, z: 0.33333334}
      m_PreInfinity: 2
      m_PostInfinity: 2
      m_RotationOrder: 4
    path: Paint+Brush+2
  m_ScaleCurves: []
  m_FloatCurves: []
  m_PPtrCurves: []
  m_SampleRate: 24
  m_WrapMode: 0
  m_Bounds:
    m_Center: {x: 0, y: 0, z: 0}
    m_Extent: {x: 0, y: 0, z: 0}
  m_ClipBindingConstant:
    genericBindings:
    - serializedVersion: 2
      path: 2101919509
      attribute: 1
      script: {fileID: 0}
      typeID: 4
      customType: 0
      isPPtrCurve: 0
    - serializedVersion: 2
      path: 2101919509
      attribute: 2
      script: {fileID: 0}
      typeID: 4
      customType: 0
      isPPtrCurve: 0
    pptrCurveMapping: []
  m_AnimationClipSettings:
    serializedVersion: 2
    m_AdditiveReferencePoseClip: {fileID: 0}
    m_AdditiveReferencePoseTime: 0
    m_StartTime: 0
    m_StopTime: 4.1250005
    m_OrientationOffsetY: 0
    m_Level: 0
    m_CycleOffset: 0
    m_HasAdditiveReferencePose: 0
    m_LoopTime: 1
    m_LoopBlend: 0
    m_LoopBlendOrientation: 0
    m_LoopBlendPositionY: 0
    m_LoopBlendPositionXZ: 0
    m_KeepOriginalOrientation: 0
    m_KeepOriginalPositionY: 1
    m_KeepOriginalPositionXZ: 0
    m_HeightFromFeet: 0
    m_Mirror: 0
  m_EditorCurves: []
  m_EulerEditorCurves: []
  m_HasGenericRootTransform: 0
  m_HasMotionFloatCurves: 0
  m_Events: []
