%YAML 1.1
%TAG !u! tag:unity3d.com,2011:
--- !u!74 &7400000
AnimationClip:
  m_ObjectHideFlags: 0
  m_CorrespondingSourceObject: {fileID: 0}
  m_PrefabInstance: {fileID: 0}
  m_PrefabAsset: {fileID: 0}
  m_Name: Scene
  serializedVersion: 6
  m_Legacy: 0
  m_Compressed: 0
  m_UseHighQualityCurve: 1
  m_RotationCurves:
  - curve:
      serializedVersion: 2
      m_Curve:
      - serializedVersion: 3
        time: 0
        value: {x: 0.00000008146034, y: -1.2827481e-10, z: 3.0921719e-16, w: 1}
        inSlope: {x: -1.8417268e-11, y: -0.10393865, z: 0.000000008466877, w: -0.0002245903}
        outSlope: {x: -1.8417268e-11, y: -0.10393865, z: 0.000000008466877, w: -0.0002245903}
        tangentMode: 0
        weightedMode: 0
        inWeight: {x: 0.33333334, y: 0.33333334, z: 0.33333334, w: 0.33333334}
        outWeight: {x: 0.33333334, y: 0.33333334, z: 0.33333334, w: 0.33333334}
      - serializedVersion: 3
        time: 0.25000003
        value: {x: 0.00000008055444, y: -0.14872034, z: 0.00000001211481, w: 0.9888793}
        inSlope: {x: -0.000000014411767, y: -1.1474506, z: 0.00000009347171, w: -0.17691779}
        outSlope: {x: -0.000000014411767, y: -1.1474506, z: 0.00000009347171, w: -0.17691779}
        tangentMode: 0
        weightedMode: 0
        inWeight: {x: 0.33333334, y: 0.33333334, z: 0.33333334, w: 0.33333334}
        outWeight: {x: 0.33333334, y: 0.33333334, z: 0.33333334, w: 0.33333334}
      - serializedVersion: 3
        time: 0.625
        value: {x: 0.000000053251064, y: -0.75674915, z: 0.000000061645046, w: 0.65370536}
        inSlope: {x: -0.00000015706476, y: -1.6564693, z: 0.00000013493656, w: -1.9281132}
        outSlope: {x: -0.00000015706476, y: -1.6564693, z: 0.00000013493656, w: -1.9281132}
        tangentMode: 0
        weightedMode: 0
        inWeight: {x: 0.33333334, y: 0.33333334, z: 0.33333334, w: 0.33333334}
        outWeight: {x: 0.33333334, y: 0.33333334, z: 0.33333334, w: 0.33333334}
      - serializedVersion: 3
        time: 0.8333333
        value: {x: 0.000000009638533, y: -0.9929753, z: 0.00000008088811, w: 0.11832178}
        inSlope: {x: -0.0000002525705, y: -0.3626778, z: 0.000000029543788, w: -3.100533}
        outSlope: {x: -0.0000002525705, y: -0.3626778, z: 0.000000029543788, w: -3.100533}
        tangentMode: 0
        weightedMode: 0
        inWeight: {x: 0.33333334, y: 0.33333334, z: 0.33333334, w: 0.33333334}
        outWeight: {x: 0.33333334, y: 0.33333334, z: 0.33333334, w: 0.33333334}
      - serializedVersion: 3
        time: 1.0000001
        value: {x: -0.000000034361268, y: -0.9066815, z: 0.00000007385859, w: -0.42181593}
        inSlope: {x: -0.00000025753582, y: 1.4774169, z: -0.00000012035085, w: -3.1614873}
        outSlope: {x: -0.00000025753582, y: 1.4774169, z: -0.00000012035085, w: -3.1614873}
        tangentMode: 0
        weightedMode: 0
        inWeight: {x: 0.33333334, y: 0.33333334, z: 0.33333334, w: 0.33333334}
        outWeight: {x: 0.33333334, y: 0.33333334, z: 0.33333334, w: 0.33333334}
      - serializedVersion: 3
        time: 1.1666667
        value: {x: -0.00000007042997, y: -0.5024743, z: 0.000000040931727, w: -0.86459213}
        inSlope: {x: -0.00000015409623, y: 3.2644844, z: -0.00000026592602, w: -1.8916724}
        outSlope: {x: -0.00000015409623, y: 3.2644844, z: -0.00000026592602, w: -1.8916724}
        tangentMode: 0
        weightedMode: 0
        inWeight: {x: 0.33333334, y: 0.33333334, z: 0.33333334, w: 0.33333334}
        outWeight: {x: 0.33333334, y: 0.33333334, z: 0.33333334, w: 0.33333334}
      - serializedVersion: 3
        time: 1.3333334
        value: {x: -0.0000000808437, y: 0.12281164, z: -0.000000010004278, w: -0.99243003}
        inSlope: {x: 0.000000040003613, y: 3.941537, z: -0.00000032107894, w: 0.491081}
        outSlope: {x: 0.000000040003613, y: 3.941537, z: -0.00000032107894, w: 0.491081}
        tangentMode: 0
        weightedMode: 0
        inWeight: {x: 0.33333334, y: 0.33333334, z: 0.33333334, w: 0.33333334}
        outWeight: {x: 0.33333334, y: 0.33333334, z: 0.33333334, w: 0.33333334}
      - serializedVersion: 3
        time: 1.5000001
        value: {x: -0.000000056798196, y: 0.7168284, z: -0.000000058393088, w: -0.69724965}
        inSlope: {x: 0.00000023874932, y: 2.8486114, z: -0.00000023204886, w: 2.930866}
        outSlope: {x: 0.00000023874932, y: 2.8486114, z: -0.00000023204886, w: 2.930866}
        tangentMode: 0
        weightedMode: 0
        inWeight: {x: 0.33333334, y: 0.33333334, z: 0.33333334, w: 0.33333334}
        outWeight: {x: 0.33333334, y: 0.33333334, z: 0.33333334, w: 0.33333334}
      - serializedVersion: 3
        time: 1.6250001
        value: {x: -0.000000020592399, y: 0.9675211, z: -0.000000078814594, w: -0.25279048}
        inSlope: {x: 0.00000032460224, y: 1.0408971, z: -0.00000008479183, w: 3.9847884}
        outSlope: {x: 0.00000032460224, y: 1.0408971, z: -0.00000008479183, w: 3.9847884}
        tangentMode: 0
        weightedMode: 0
        inWeight: {x: 0.33333334, y: 0.33333334, z: 0.33333334, w: 0.33333334}
        outWeight: {x: 0.33333334, y: 0.33333334, z: 0.33333334, w: 0.33333334}
      - serializedVersion: 3
        time: 1.7500001
        value: {x: 0.000000021053857, y: 0.96602327, z: -0.00000007869259, w: 0.2584553}
        inSlope: {x: 0.00000032288534, y: -1.0592973, z: 0.0000000862907, w: 3.963712}
        outSlope: {x: 0.00000032288534, y: -1.0592973, z: 0.0000000862907, w: 3.963712}
        tangentMode: 0
        weightedMode: 0
        inWeight: {x: 0.33333334, y: 0.33333334, z: 0.33333334, w: 0.33333334}
        outWeight: {x: 0.33333334, y: 0.33333334, z: 0.33333334, w: 0.33333334}
      - serializedVersion: 3
        time: 1.9166667
        value: {x: 0.000000065878204, y: 0.58820057, z: -0.00000004791502, w: 0.8087151}
        inSlope: {x: 0.00000019226363, y: -3.2401516, z: 0.0000002639439, w: 2.360211}
        outSlope: {x: 0.00000019226363, y: -3.2401516, z: 0.0000002639439, w: 2.360211}
        tangentMode: 0
        weightedMode: 0
        inWeight: {x: 0.33333334, y: 0.33333334, z: 0.33333334, w: 0.33333334}
        outWeight: {x: 0.33333334, y: 0.33333334, z: 0.33333334, w: 0.33333334}
      - serializedVersion: 3
        time: 2.0833333
        value: {x: 0.00000008142677, y: -0.02870653, z: 0.000000002338444, w: 0.9995879}
        inSlope: {x: -0.00000000859577, y: -3.829167, z: 0.00000031192525, w: -0.105520904}
        outSlope: {x: -0.00000000859577, y: -3.829167, z: 0.00000031192525, w: -0.105520904}
        tangentMode: 0
        weightedMode: 0
        inWeight: {x: 0.33333334, y: 0.33333334, z: 0.33333334, w: 0.33333334}
        outWeight: {x: 0.33333334, y: 0.33333334, z: 0.33333334, w: 0.33333334}
      - serializedVersion: 3
        time: 2.25
        value: {x: 0.000000064893534, y: -0.60447073, z: 0.00000004924039, w: 0.79662734}
        inSlope: {x: -0.00000017533884, y: -2.8461533, z: 0.00000023184862, w: -2.1524436}
        outSlope: {x: -0.00000017533884, y: -2.8461533, z: 0.00000023184862, w: -2.1524436}
        tangentMode: 0
        weightedMode: 0
        inWeight: {x: 0.33333334, y: 0.33333334, z: 0.33333334, w: 0.33333334}
        outWeight: {x: 0.33333334, y: 0.33333334, z: 0.33333334, w: 0.33333334}
      - serializedVersion: 3
        time: 2.4166667
        value: {x: 0.000000028132279, y: -0.9384742, z: 0.00000007644843, w: 0.34534937}
        inSlope: {x: -0.0000002461037, y: -1.1187735, z: 0.00000009113558, w: -3.0211473}
        outSlope: {x: -0.0000002461037, y: -1.1187735, z: 0.00000009113558, w: -3.0211473}
        tangentMode: 0
        weightedMode: 0
        inWeight: {x: 0.33333334, y: 0.33333334, z: 0.33333334, w: 0.33333334}
        outWeight: {x: 0.33333334, y: 0.33333334, z: 0.33333334, w: 0.33333334}
      - serializedVersion: 3
        time: 2.625
        value: {x: -0.000000021337897, y: -0.9650836, z: 0.00000007861604, w: -0.26194215}
        inSlope: {x: -0.00000020993878, y: 0.6923119, z: -0.000000056395955, w: -2.57719}
        outSlope: {x: -0.00000020993878, y: 0.6923119, z: -0.000000056395955, w: -2.57719}
        tangentMode: 0
        weightedMode: 0
        inWeight: {x: 0.33333334, y: 0.33333334, z: 0.33333334, w: 0.33333334}
        outWeight: {x: 0.33333334, y: 0.33333334, z: 0.33333334, w: 0.33333334}
      - serializedVersion: 3
        time: 2.9583333
        value: {x: -0.00000006726547, y: -0.56404364, z: 0.00000004594719, w: -0.825745}
        inSlope: {x: -0.000000069524674, y: 1.2401761, z: -0.000000101025215, w: -0.85347855}
        outSlope: {x: -0.000000069524674, y: 1.2401761, z: -0.000000101025215, w: -0.85347855}
        tangentMode: 0
        weightedMode: 0
        inWeight: {x: 0.33333334, y: 0.33333334, z: 0.33333334, w: 0.33333334}
        outWeight: {x: 0.33333334, y: 0.33333334, z: 0.33333334, w: 0.33333334}
      - serializedVersion: 3
        time: 3.2083333
        value: {x: -0.00000007635859, y: -0.3483318, z: 0.000000028375228, w: -0.9373713}
        inSlope: {x: -0.00000001029178, y: 0.33356416, z: -0.00000002717222, w: -0.12634163}
        outSlope: {x: -0.00000001029178, y: 0.33356416, z: -0.00000002717222, w: -0.12634163}
        tangentMode: 0
        weightedMode: 0
        inWeight: {x: 0.33333334, y: 0.33333334, z: 0.33333334, w: 0.33333334}
        outWeight: {x: 0.33333334, y: 0.33333334, z: 0.33333334, w: 0.33333334}
      - serializedVersion: 3
        time: 3.2916667
        value: {x: -0.00000007683465, y: -0.33218163, z: 0.00000002705963, w: -0.9432154}
        inSlope: {x: -0.0000000056447114, y: 0.19409071, z: -0.000000015810725, w: -0.06929241}
        outSlope: {x: -0.0000000056447114, y: 0.19409071, z: -0.000000015810725, w: -0.06929241}
        tangentMode: 0
        weightedMode: 0
        inWeight: {x: 0.33333334, y: 0.33333334, z: 0.33333334, w: 0.33333334}
        outWeight: {x: 0.33333334, y: 0.33333334, z: 0.33333334, w: 0.33333334}
      m_PreInfinity: 2
      m_PostInfinity: 2
      m_RotationOrder: 4
    path: 1
  m_CompressedRotationCurves: []
  m_EulerCurves: []
  m_PositionCurves: []
  m_ScaleCurves: []
  m_FloatCurves: []
  m_PPtrCurves: []
  m_SampleRate: 24
  m_WrapMode: 0
  m_Bounds:
    m_Center: {x: 0, y: 0, z: 0}
    m_Extent: {x: 0, y: 0, z: 0}
  m_ClipBindingConstant:
    genericBindings:
    - serializedVersion: 2
      path: 2212294583
      attribute: 2
      script: {fileID: 0}
      typeID: 4
      customType: 0
      isPPtrCurve: 0
    pptrCurveMapping: []
  m_AnimationClipSettings:
    serializedVersion: 2
    m_AdditiveReferencePoseClip: {fileID: 0}
    m_AdditiveReferencePoseTime: 0
    m_StartTime: 0
    m_StopTime: 3.2916667
    m_OrientationOffsetY: 0
    m_Level: 0
    m_CycleOffset: 0
    m_HasAdditiveReferencePose: 0
    m_LoopTime: 1
    m_LoopBlend: 0
    m_LoopBlendOrientation: 0
    m_LoopBlendPositionY: 0
    m_LoopBlendPositionXZ: 0
    m_KeepOriginalOrientation: 0
    m_KeepOriginalPositionY: 1
    m_KeepOriginalPositionXZ: 0
    m_HeightFromFeet: 0
    m_Mirror: 0
  m_EditorCurves:
  - curve:
      serializedVersion: 2
      m_Curve:
      - serializedVersion: 3
        time: 0
        value: 0.00000008146034
        inSlope: -1.8417268e-11
        outSlope: -1.8417268e-11
        tangentMode: 0
        weightedMode: 0
        inWeight: 0.33333334
        outWeight: 0.33333334
      - serializedVersion: 3
        time: 0.25000003
        value: 0.00000008055444
        inSlope: -0.000000014411767
        outSlope: -0.000000014411767
        tangentMode: 0
        weightedMode: 0
        inWeight: 0.33333334
        outWeight: 0.33333334
      - serializedVersion: 3
        time: 0.625
        value: 0.000000053251064
        inSlope: -0.00000015706476
        outSlope: -0.00000015706476
        tangentMode: 0
        weightedMode: 0
        inWeight: 0.33333334
        outWeight: 0.33333334
      - serializedVersion: 3
        time: 0.8333333
        value: 0.000000009638533
        inSlope: -0.0000002525705
        outSlope: -0.0000002525705
        tangentMode: 0
        weightedMode: 0
        inWeight: 0.33333334
        outWeight: 0.33333334
      - serializedVersion: 3
        time: 1.0000001
        value: -0.000000034361268
        inSlope: -0.00000025753582
        outSlope: -0.00000025753582
        tangentMode: 0
        weightedMode: 0
        inWeight: 0.33333334
        outWeight: 0.33333334
      - serializedVersion: 3
        time: 1.1666667
        value: -0.00000007042997
        inSlope: -0.00000015409623
        outSlope: -0.00000015409623
        tangentMode: 0
        weightedMode: 0
        inWeight: 0.33333334
        outWeight: 0.33333334
      - serializedVersion: 3
        time: 1.3333334
        value: -0.0000000808437
        inSlope: 0.000000040003613
        outSlope: 0.000000040003613
        tangentMode: 0
        weightedMode: 0
        inWeight: 0.33333334
        outWeight: 0.33333334
      - serializedVersion: 3
        time: 1.5000001
        value: -0.000000056798196
        inSlope: 0.00000023874932
        outSlope: 0.00000023874932
        tangentMode: 0
        weightedMode: 0
        inWeight: 0.33333334
        outWeight: 0.33333334
      - serializedVersion: 3
        time: 1.6250001
        value: -0.000000020592399
        inSlope: 0.00000032460224
        outSlope: 0.00000032460224
        tangentMode: 0
        weightedMode: 0
        inWeight: 0.33333334
        outWeight: 0.33333334
      - serializedVersion: 3
        time: 1.7500001
        value: 0.000000021053857
        inSlope: 0.00000032288534
        outSlope: 0.00000032288534
        tangentMode: 0
        weightedMode: 0
        inWeight: 0.33333334
        outWeight: 0.33333334
      - serializedVersion: 3
        time: 1.9166667
        value: 0.000000065878204
        inSlope: 0.00000019226363
        outSlope: 0.00000019226363
        tangentMode: 0
        weightedMode: 0
        inWeight: 0.33333334
        outWeight: 0.33333334
      - serializedVersion: 3
        time: 2.0833333
        value: 0.00000008142677
        inSlope: -0.00000000859577
        outSlope: -0.00000000859577
        tangentMode: 0
        weightedMode: 0
        inWeight: 0.33333334
        outWeight: 0.33333334
      - serializedVersion: 3
        time: 2.25
        value: 0.000000064893534
        inSlope: -0.00000017533884
        outSlope: -0.00000017533884
        tangentMode: 0
        weightedMode: 0
        inWeight: 0.33333334
        outWeight: 0.33333334
      - serializedVersion: 3
        time: 2.4166667
        value: 0.000000028132279
        inSlope: -0.0000002461037
        outSlope: -0.0000002461037
        tangentMode: 0
        weightedMode: 0
        inWeight: 0.33333334
        outWeight: 0.33333334
      - serializedVersion: 3
        time: 2.625
        value: -0.000000021337897
        inSlope: -0.00000020993878
        outSlope: -0.00000020993878
        tangentMode: 0
        weightedMode: 0
        inWeight: 0.33333334
        outWeight: 0.33333334
      - serializedVersion: 3
        time: 2.9583333
        value: -0.00000006726547
        inSlope: -0.000000069524674
        outSlope: -0.000000069524674
        tangentMode: 0
        weightedMode: 0
        inWeight: 0.33333334
        outWeight: 0.33333334
      - serializedVersion: 3
        time: 3.2083333
        value: -0.00000007635859
        inSlope: -0.00000001029178
        outSlope: -0.00000001029178
        tangentMode: 0
        weightedMode: 0
        inWeight: 0.33333334
        outWeight: 0.33333334
      - serializedVersion: 3
        time: 3.2916667
        value: -0.00000007683465
        inSlope: -0.0000000056447114
        outSlope: -0.0000000056447114
        tangentMode: 0
        weightedMode: 0
        inWeight: 0.33333334
        outWeight: 0.33333334
      m_PreInfinity: 2
      m_PostInfinity: 2
      m_RotationOrder: 4
    attribute: m_LocalRotation.x
    path: 1
    classID: 4
    script: {fileID: 0}
  - curve:
      serializedVersion: 2
      m_Curve:
      - serializedVersion: 3
        time: 0
        value: -1.2827481e-10
        inSlope: -0.10393865
        outSlope: -0.10393865
        tangentMode: 0
        weightedMode: 0
        inWeight: 0.33333334
        outWeight: 0.33333334
      - serializedVersion: 3
        time: 0.25000003
        value: -0.14872034
        inSlope: -1.1474506
        outSlope: -1.1474506
        tangentMode: 0
        weightedMode: 0
        inWeight: 0.33333334
        outWeight: 0.33333334
      - serializedVersion: 3
        time: 0.625
        value: -0.75674915
        inSlope: -1.6564693
        outSlope: -1.6564693
        tangentMode: 0
        weightedMode: 0
        inWeight: 0.33333334
        outWeight: 0.33333334
      - serializedVersion: 3
        time: 0.8333333
        value: -0.9929753
        inSlope: -0.3626778
        outSlope: -0.3626778
        tangentMode: 0
        weightedMode: 0
        inWeight: 0.33333334
        outWeight: 0.33333334
      - serializedVersion: 3
        time: 1.0000001
        value: -0.9066815
        inSlope: 1.4774169
        outSlope: 1.4774169
        tangentMode: 0
        weightedMode: 0
        inWeight: 0.33333334
        outWeight: 0.33333334
      - serializedVersion: 3
        time: 1.1666667
        value: -0.5024743
        inSlope: 3.2644844
        outSlope: 3.2644844
        tangentMode: 0
        weightedMode: 0
        inWeight: 0.33333334
        outWeight: 0.33333334
      - serializedVersion: 3
        time: 1.3333334
        value: 0.12281164
        inSlope: 3.941537
        outSlope: 3.941537
        tangentMode: 0
        weightedMode: 0
        inWeight: 0.33333334
        outWeight: 0.33333334
      - serializedVersion: 3
        time: 1.5000001
        value: 0.7168284
        inSlope: 2.8486114
        outSlope: 2.8486114
        tangentMode: 0
        weightedMode: 0
        inWeight: 0.33333334
        outWeight: 0.33333334
      - serializedVersion: 3
        time: 1.6250001
        value: 0.9675211
        inSlope: 1.0408971
        outSlope: 1.0408971
        tangentMode: 0
        weightedMode: 0
        inWeight: 0.33333334
        outWeight: 0.33333334
      - serializedVersion: 3
        time: 1.7500001
        value: 0.96602327
        inSlope: -1.0592973
        outSlope: -1.0592973
        tangentMode: 0
        weightedMode: 0
        inWeight: 0.33333334
        outWeight: 0.33333334
      - serializedVersion: 3
        time: 1.9166667
        value: 0.58820057
        inSlope: -3.2401516
        outSlope: -3.2401516
        tangentMode: 0
        weightedMode: 0
        inWeight: 0.33333334
        outWeight: 0.33333334
      - serializedVersion: 3
        time: 2.0833333
        value: -0.02870653
        inSlope: -3.829167
        outSlope: -3.829167
        tangentMode: 0
        weightedMode: 0
        inWeight: 0.33333334
        outWeight: 0.33333334
      - serializedVersion: 3
        time: 2.25
        value: -0.60447073
        inSlope: -2.8461533
        outSlope: -2.8461533
        tangentMode: 0
        weightedMode: 0
        inWeight: 0.33333334
        outWeight: 0.33333334
      - serializedVersion: 3
        time: 2.4166667
        value: -0.9384742
        inSlope: -1.1187735
        outSlope: -1.1187735
        tangentMode: 0
        weightedMode: 0
        inWeight: 0.33333334
        outWeight: 0.33333334
      - serializedVersion: 3
        time: 2.625
        value: -0.9650836
        inSlope: 0.6923119
        outSlope: 0.6923119
        tangentMode: 0
        weightedMode: 0
        inWeight: 0.33333334
        outWeight: 0.33333334
      - serializedVersion: 3
        time: 2.9583333
        value: -0.56404364
        inSlope: 1.2401761
        outSlope: 1.2401761
        tangentMode: 0
        weightedMode: 0
        inWeight: 0.33333334
        outWeight: 0.33333334
      - serializedVersion: 3
        time: 3.2083333
        value: -0.3483318
        inSlope: 0.33356416
        outSlope: 0.33356416
        tangentMode: 0
        weightedMode: 0
        inWeight: 0.33333334
        outWeight: 0.33333334
      - serializedVersion: 3
        time: 3.2916667
        value: -0.33218163
        inSlope: 0.19409071
        outSlope: 0.19409071
        tangentMode: 0
        weightedMode: 0
        inWeight: 0.33333334
        outWeight: 0.33333334
      m_PreInfinity: 2
      m_PostInfinity: 2
      m_RotationOrder: 4
    attribute: m_LocalRotation.y
    path: 1
    classID: 4
    script: {fileID: 0}
  - curve:
      serializedVersion: 2
      m_Curve:
      - serializedVersion: 3
        time: 0
        value: 3.0921719e-16
        inSlope: 0.000000008466877
        outSlope: 0.000000008466877
        tangentMode: 0
        weightedMode: 0
        inWeight: 0.33333334
        outWeight: 0.33333334
      - serializedVersion: 3
        time: 0.25000003
        value: 0.00000001211481
        inSlope: 0.00000009347171
        outSlope: 0.00000009347171
        tangentMode: 0
        weightedMode: 0
        inWeight: 0.33333334
        outWeight: 0.33333334
      - serializedVersion: 3
        time: 0.625
        value: 0.000000061645046
        inSlope: 0.00000013493656
        outSlope: 0.00000013493656
        tangentMode: 0
        weightedMode: 0
        inWeight: 0.33333334
        outWeight: 0.33333334
      - serializedVersion: 3
        time: 0.8333333
        value: 0.00000008088811
        inSlope: 0.000000029543788
        outSlope: 0.000000029543788
        tangentMode: 0
        weightedMode: 0
        inWeight: 0.33333334
        outWeight: 0.33333334
      - serializedVersion: 3
        time: 1.0000001
        value: 0.00000007385859
        inSlope: -0.00000012035085
        outSlope: -0.00000012035085
        tangentMode: 0
        weightedMode: 0
        inWeight: 0.33333334
        outWeight: 0.33333334
      - serializedVersion: 3
        time: 1.1666667
        value: 0.000000040931727
        inSlope: -0.00000026592602
        outSlope: -0.00000026592602
        tangentMode: 0
        weightedMode: 0
        inWeight: 0.33333334
        outWeight: 0.33333334
      - serializedVersion: 3
        time: 1.3333334
        value: -0.000000010004278
        inSlope: -0.00000032107894
        outSlope: -0.00000032107894
        tangentMode: 0
        weightedMode: 0
        inWeight: 0.33333334
        outWeight: 0.33333334
      - serializedVersion: 3
        time: 1.5000001
        value: -0.000000058393088
        inSlope: -0.00000023204886
        outSlope: -0.00000023204886
        tangentMode: 0
        weightedMode: 0
        inWeight: 0.33333334
        outWeight: 0.33333334
      - serializedVersion: 3
        time: 1.6250001
        value: -0.000000078814594
        inSlope: -0.00000008479183
        outSlope: -0.00000008479183
        tangentMode: 0
        weightedMode: 0
        inWeight: 0.33333334
        outWeight: 0.33333334
      - serializedVersion: 3
        time: 1.7500001
        value: -0.00000007869259
        inSlope: 0.0000000862907
        outSlope: 0.0000000862907
        tangentMode: 0
        weightedMode: 0
        inWeight: 0.33333334
        outWeight: 0.33333334
      - serializedVersion: 3
        time: 1.9166667
        value: -0.00000004791502
        inSlope: 0.0000002639439
        outSlope: 0.0000002639439
        tangentMode: 0
        weightedMode: 0
        inWeight: 0.33333334
        outWeight: 0.33333334
      - serializedVersion: 3
        time: 2.0833333
        value: 0.000000002338444
        inSlope: 0.00000031192525
        outSlope: 0.00000031192525
        tangentMode: 0
        weightedMode: 0
        inWeight: 0.33333334
        outWeight: 0.33333334
      - serializedVersion: 3
        time: 2.25
        value: 0.00000004924039
        inSlope: 0.00000023184862
        outSlope: 0.00000023184862
        tangentMode: 0
        weightedMode: 0
        inWeight: 0.33333334
        outWeight: 0.33333334
      - serializedVersion: 3
        time: 2.4166667
        value: 0.00000007644843
        inSlope: 0.00000009113558
        outSlope: 0.00000009113558
        tangentMode: 0
        weightedMode: 0
        inWeight: 0.33333334
        outWeight: 0.33333334
      - serializedVersion: 3
        time: 2.625
        value: 0.00000007861604
        inSlope: -0.000000056395955
        outSlope: -0.000000056395955
        tangentMode: 0
        weightedMode: 0
        inWeight: 0.33333334
        outWeight: 0.33333334
      - serializedVersion: 3
        time: 2.9583333
        value: 0.00000004594719
        inSlope: -0.000000101025215
        outSlope: -0.000000101025215
        tangentMode: 0
        weightedMode: 0
        inWeight: 0.33333334
        outWeight: 0.33333334
      - serializedVersion: 3
        time: 3.2083333
        value: 0.000000028375228
        inSlope: -0.00000002717222
        outSlope: -0.00000002717222
        tangentMode: 0
        weightedMode: 0
        inWeight: 0.33333334
        outWeight: 0.33333334
      - serializedVersion: 3
        time: 3.2916667
        value: 0.00000002705963
        inSlope: -0.000000015810725
        outSlope: -0.000000015810725
        tangentMode: 0
        weightedMode: 0
        inWeight: 0.33333334
        outWeight: 0.33333334
      m_PreInfinity: 2
      m_PostInfinity: 2
      m_RotationOrder: 4
    attribute: m_LocalRotation.z
    path: 1
    classID: 4
    script: {fileID: 0}
  - curve:
      serializedVersion: 2
      m_Curve:
      - serializedVersion: 3
        time: 0
        value: 1
        inSlope: -0.0002245903
        outSlope: -0.0002245903
        tangentMode: 0
        weightedMode: 0
        inWeight: 0.33333334
        outWeight: 0.33333334
      - serializedVersion: 3
        time: 0.25000003
        value: 0.9888793
        inSlope: -0.17691779
        outSlope: -0.17691779
        tangentMode: 0
        weightedMode: 0
        inWeight: 0.33333334
        outWeight: 0.33333334
      - serializedVersion: 3
        time: 0.625
        value: 0.65370536
        inSlope: -1.9281132
        outSlope: -1.9281132
        tangentMode: 0
        weightedMode: 0
        inWeight: 0.33333334
        outWeight: 0.33333334
      - serializedVersion: 3
        time: 0.8333333
        value: 0.11832178
        inSlope: -3.100533
        outSlope: -3.100533
        tangentMode: 0
        weightedMode: 0
        inWeight: 0.33333334
        outWeight: 0.33333334
      - serializedVersion: 3
        time: 1.0000001
        value: -0.42181593
        inSlope: -3.1614873
        outSlope: -3.1614873
        tangentMode: 0
        weightedMode: 0
        inWeight: 0.33333334
        outWeight: 0.33333334
      - serializedVersion: 3
        time: 1.1666667
        value: -0.86459213
        inSlope: -1.8916724
        outSlope: -1.8916724
        tangentMode: 0
        weightedMode: 0
        inWeight: 0.33333334
        outWeight: 0.33333334
      - serializedVersion: 3
        time: 1.3333334
        value: -0.99243003
        inSlope: 0.491081
        outSlope: 0.491081
        tangentMode: 0
        weightedMode: 0
        inWeight: 0.33333334
        outWeight: 0.33333334
      - serializedVersion: 3
        time: 1.5000001
        value: -0.69724965
        inSlope: 2.930866
        outSlope: 2.930866
        tangentMode: 0
        weightedMode: 0
        inWeight: 0.33333334
        outWeight: 0.33333334
      - serializedVersion: 3
        time: 1.6250001
        value: -0.25279048
        inSlope: 3.9847884
        outSlope: 3.9847884
        tangentMode: 0
        weightedMode: 0
        inWeight: 0.33333334
        outWeight: 0.33333334
      - serializedVersion: 3
        time: 1.7500001
        value: 0.2584553
        inSlope: 3.963712
        outSlope: 3.963712
        tangentMode: 0
        weightedMode: 0
        inWeight: 0.33333334
        outWeight: 0.33333334
      - serializedVersion: 3
        time: 1.9166667
        value: 0.8087151
        inSlope: 2.360211
        outSlope: 2.360211
        tangentMode: 0
        weightedMode: 0
        inWeight: 0.33333334
        outWeight: 0.33333334
      - serializedVersion: 3
        time: 2.0833333
        value: 0.9995879
        inSlope: -0.105520904
        outSlope: -0.105520904
        tangentMode: 0
        weightedMode: 0
        inWeight: 0.33333334
        outWeight: 0.33333334
      - serializedVersion: 3
        time: 2.25
        value: 0.79662734
        inSlope: -2.1524436
        outSlope: -2.1524436
        tangentMode: 0
        weightedMode: 0
        inWeight: 0.33333334
        outWeight: 0.33333334
      - serializedVersion: 3
        time: 2.4166667
        value: 0.34534937
        inSlope: -3.0211473
        outSlope: -3.0211473
        tangentMode: 0
        weightedMode: 0
        inWeight: 0.33333334
        outWeight: 0.33333334
      - serializedVersion: 3
        time: 2.625
        value: -0.26194215
        inSlope: -2.57719
        outSlope: -2.57719
        tangentMode: 0
        weightedMode: 0
        inWeight: 0.33333334
        outWeight: 0.33333334
      - serializedVersion: 3
        time: 2.9583333
        value: -0.825745
        inSlope: -0.85347855
        outSlope: -0.85347855
        tangentMode: 0
        weightedMode: 0
        inWeight: 0.33333334
        outWeight: 0.33333334
      - serializedVersion: 3
        time: 3.2083333
        value: -0.9373713
        inSlope: -0.12634163
        outSlope: -0.12634163
        tangentMode: 0
        weightedMode: 0
        inWeight: 0.33333334
        outWeight: 0.33333334
      - serializedVersion: 3
        time: 3.2916667
        value: -0.9432154
        inSlope: -0.06929241
        outSlope: -0.06929241
        tangentMode: 0
        weightedMode: 0
        inWeight: 0.33333334
        outWeight: 0.33333334
      m_PreInfinity: 2
      m_PostInfinity: 2
      m_RotationOrder: 4
    attribute: m_LocalRotation.w
    path: 1
    classID: 4
    script: {fileID: 0}
  m_EulerEditorCurves:
  - curve:
      serializedVersion: 2
      m_Curve:
      - serializedVersion: 3
        time: 0
        value: 0.000009334667
        inSlope: 0.00007108946
        outSlope: 0.00007108946
        tangentMode: 0
        weightedMode: 0
        inWeight: 0.33333334
        outWeight: 0.33333334
      - serializedVersion: 3
        time: 0.25000003
        value: 0.000009334667
        inSlope: 0.00007108946
        outSlope: 0.000047392983
        tangentMode: 0
        weightedMode: 0
        inWeight: 0.33333334
        outWeight: 0.33333334
      - serializedVersion: 3
        time: 0.625
        value: 0.000009334667
        inSlope: 0.000047392983
        outSlope: 0.00008530737
        tangentMode: 0
        weightedMode: 0
        inWeight: 0.33333334
        outWeight: 0.33333334
      - serializedVersion: 3
        time: 0.8333333
        value: 0.000009334667
        inSlope: 0.00008530737
        outSlope: 0.000106634114
        tangentMode: 0
        weightedMode: 0
        inWeight: 0.33333334
        outWeight: 0.33333334
      - serializedVersion: 3
        time: 1.0000001
        value: 0.000009334667
        inSlope: 0.000106634114
        outSlope: 0.00010663422
        tangentMode: 0
        weightedMode: 0
        inWeight: 0.33333334
        outWeight: 0.33333334
      - serializedVersion: 3
        time: 1.1666667
        value: 0.000009334667
        inSlope: 0.00010663422
        outSlope: 0.00010663422
        tangentMode: 0
        weightedMode: 0
        inWeight: 0.33333334
        outWeight: 0.33333334
      - serializedVersion: 3
        time: 1.3333334
        value: 0.000009334669
        inSlope: 0.00010663418
        outSlope: 0.00010663411
        tangentMode: 0
        weightedMode: 0
        inWeight: 0.33333334
        outWeight: 0.33333334
      - serializedVersion: 3
        time: 1.5000001
        value: 0.000009334667
        inSlope: 0.00010663415
        outSlope: 0.00014217893
        tangentMode: 0
        weightedMode: 0
        inWeight: 0.33333334
        outWeight: 0.33333334
      - serializedVersion: 3
        time: 1.6250001
        value: 0.000009334667
        inSlope: 0.00014217893
        outSlope: 0.00014217893
        tangentMode: 0
        weightedMode: 0
        inWeight: 0.33333334
        outWeight: 0.33333334
      - serializedVersion: 3
        time: 1.7500001
        value: 0.000009334668
        inSlope: 0.0001421789
        outSlope: 0.0001066342
        tangentMode: 0
        weightedMode: 0
        inWeight: 0.33333334
        outWeight: 0.33333334
      - serializedVersion: 3
        time: 1.9166667
        value: 0.000009334667
        inSlope: 0.00010663422
        outSlope: 0.0001066343
        tangentMode: 0
        weightedMode: 0
        inWeight: 0.33333334
        outWeight: 0.33333334
      - serializedVersion: 3
        time: 2.0833333
        value: 0.000009334667
        inSlope: 0.0001066343
        outSlope: 0.00010663415
        tangentMode: 0
        weightedMode: 0
        inWeight: 0.33333334
        outWeight: 0.33333334
      - serializedVersion: 3
        time: 2.25
        value: 0.000009334667
        inSlope: 0.00010663415
        outSlope: 0.00010663415
        tangentMode: 0
        weightedMode: 0
        inWeight: 0.33333334
        outWeight: 0.33333334
      - serializedVersion: 3
        time: 2.4166667
        value: 0.000009334667
        inSlope: 0.00010663415
        outSlope: 0.000085307394
        tangentMode: 0
        weightedMode: 0
        inWeight: 0.33333334
        outWeight: 0.33333334
      - serializedVersion: 3
        time: 2.625
        value: 0.000009334667
        inSlope: 0.000085307394
        outSlope: 0.00005331711
        tangentMode: 0
        weightedMode: 0
        inWeight: 0.33333334
        outWeight: 0.33333334
      - serializedVersion: 3
        time: 2.9583333
        value: 0.000009334667
        inSlope: 0.00005331711
        outSlope: 0.00007108947
        tangentMode: 0
        weightedMode: 0
        inWeight: 0.33333334
        outWeight: 0.33333334
      - serializedVersion: 3
        time: 3.2083333
        value: 0.000009334667
        inSlope: 0.00007108947
        outSlope: 0.000213268
        tangentMode: 0
        weightedMode: 0
        inWeight: 0.33333334
        outWeight: 0.33333334
      - serializedVersion: 3
        time: 3.2916667
        value: 0.000009334667
        inSlope: 0.000213268
        outSlope: 0.000213268
        tangentMode: 0
        weightedMode: 0
        inWeight: 0.33333334
        outWeight: 0.33333334
      m_PreInfinity: 2
      m_PostInfinity: 2
      m_RotationOrder: 4
    attribute: localEulerAngles.x
    path: 1
    classID: 4
    script: {fileID: 0}
  - curve:
      serializedVersion: 2
      m_Curve:
      - serializedVersion: 3
        time: 0
        value: -0.000000014699209
        inSlope: -11.91046
        outSlope: -11.91046
        tangentMode: 0
        weightedMode: 0
        inWeight: 0.33333334
        outWeight: 0.33333334
      - serializedVersion: 3
        time: 0.25000003
        value: -17.10555
        inSlope: -132.67522
        outSlope: -132.18857
        tangentMode: 0
        weightedMode: 0
        inWeight: 0.33333334
        outWeight: 0.33333334
      - serializedVersion: 3
        time: 0.625
        value: -98.35688
        inSlope: -282.26413
        outSlope: -288.4498
        tangentMode: 0
        weightedMode: 0
        inWeight: 0.33333334
        outWeight: 0.33333334
      - serializedVersion: 3
        time: 0.8333333
        value: -166.40947
        inSlope: -352.42563
        outSlope: -354.32416
        tangentMode: 0
        weightedMode: 0
        inWeight: 0.33333334
        outWeight: 0.33333334
      - serializedVersion: 3
        time: 1.0000001
        value: 130.10143
        inSlope: -395.1139
        outSlope: -395.11432
        tangentMode: 0
        weightedMode: 0
        inWeight: 0.33333334
        outWeight: 0.33333334
      - serializedVersion: 3
        time: 1.1666667
        value: 60.327663
        inSlope: -426.28986
        outSlope: -426.28986
        tangentMode: 0
        weightedMode: 0
        inWeight: 0.33333334
        outWeight: 0.33333334
      - serializedVersion: 3
        time: 1.3333334
        value: -14.108795
        inSlope: -448.0591
        outSlope: -448.05905
        tangentMode: 0
        weightedMode: 0
        inWeight: 0.33333334
        outWeight: 0.33333334
      - serializedVersion: 3
        time: 1.5000001
        value: -91.58648
        inSlope: -460.5799
        outSlope: -463.9292
        tangentMode: 0
        weightedMode: 0
        inWeight: 0.33333334
        outWeight: 0.33333334
      - serializedVersion: 3
        time: 1.6250001
        value: -150.71458
        inSlope: -467.39685
        outSlope: -467.39685
        tangentMode: 0
        weightedMode: 0
        inWeight: 0.33333334
        outWeight: 0.33333334
      - serializedVersion: 3
        time: 1.7500001
        value: 150.04314
        inSlope: -465.62512
        outSlope: -462.2227
        tangentMode: 0
        weightedMode: 0
        inWeight: 0.33333334
        outWeight: 0.33333334
      - serializedVersion: 3
        time: 1.9166667
        value: 72.05883
        inSlope: -451.90994
        outSlope: -451.90973
        tangentMode: 0
        weightedMode: 0
        inWeight: 0.33333334
        outWeight: 0.33333334
      - serializedVersion: 3
        time: 2.0833333
        value: -3.289978
        inSlope: -432.4006
        outSlope: -432.4005
        tangentMode: 0
        weightedMode: 0
        inWeight: 0.33333334
        outWeight: 0.33333334
      - serializedVersion: 3
        time: 2.25
        value: -74.38153
        inSlope: -403.55072
        outSlope: -403.55072
        tangentMode: 0
        weightedMode: 0
        inWeight: 0.33333334
        outWeight: 0.33333334
      - serializedVersion: 3
        time: 2.4166667
        value: -139.59375
        inSlope: -365.17328
        outSlope: -363.0306
        tangentMode: 0
        weightedMode: 0
        inWeight: 0.33333334
        outWeight: 0.33333334
      - serializedVersion: 3
        time: 2.625
        value: 149.62933
        inSlope: -302.22083
        outSlope: -297.0605
        tangentMode: 0
        weightedMode: 0
        inWeight: 0.33333334
        outWeight: 0.33333334
      - serializedVersion: 3
        time: 2.9583333
        value: 68.671814
        inSlope: -170.83374
        outSlope: -171.54327
        tangentMode: 0
        weightedMode: 0
        inWeight: 0.33333334
        outWeight: 0.33333334
      - serializedVersion: 3
        time: 3.2083333
        value: 40.770626
        inSlope: -40.85298
        outSlope: -40.868927
        tangentMode: 0
        weightedMode: 0
        inWeight: 0.33333334
        outWeight: 0.33333334
      - serializedVersion: 3
        time: 3.2916667
        value: 38.80249
        inSlope: -23.615067
        outSlope: -23.615067
        tangentMode: 0
        weightedMode: 0
        inWeight: 0.33333334
        outWeight: 0.33333334
      m_PreInfinity: 2
      m_PostInfinity: 2
      m_RotationOrder: 4
    attribute: localEulerAngles.y
    path: 1
    classID: 4
    script: {fileID: 0}
  - curve:
      serializedVersion: 2
      m_Curve:
      - serializedVersion: 3
        time: 0
        value: 3.4236276e-14
        inSlope: -4.1083527e-13
        outSlope: -4.1083527e-13
        tangentMode: 0
        weightedMode: 0
        inWeight: 0.33333334
        outWeight: 0.33333334
      - serializedVersion: 3
        time: 0.25000003
        value: 0
        inSlope: 0
        outSlope: 0
        tangentMode: 0
        weightedMode: 0
        inWeight: 0.33333334
        outWeight: 0.33333334
      - serializedVersion: 3
        time: 0.625
        value: 0
        inSlope: 0
        outSlope: 0
        tangentMode: 0
        weightedMode: 0
        inWeight: 0.33333334
        outWeight: 0.33333334
      - serializedVersion: 3
        time: 0.8333333
        value: -1.01777744e-13
        inSlope: 1.4655997e-12
        outSlope: 1.8319979e-12
        tangentMode: 0
        weightedMode: 0
        inWeight: 0.33333334
        outWeight: 0.33333334
      - serializedVersion: 3
        time: 1.0000001
        value: -8.1422195e-13
        inSlope: 1.4655983e-11
        outSlope: 1.4655999e-11
        tangentMode: 0
        weightedMode: 0
        inWeight: 0.33333334
        outWeight: 0.33333334
      - serializedVersion: 3
        time: 1.1666667
        value: 0
        inSlope: 0
        outSlope: 0
        tangentMode: 0
        weightedMode: 0
        inWeight: 0.33333334
        outWeight: 0.33333334
      - serializedVersion: 3
        time: 1.3333334
        value: -1.01777744e-13
        inSlope: 1.8319998e-12
        outSlope: 1.8319985e-12
        tangentMode: 0
        weightedMode: 0
        inWeight: 0.33333334
        outWeight: 0.33333334
      - serializedVersion: 3
        time: 1.5000001
        value: 0
        inSlope: 0
        outSlope: 0
        tangentMode: 0
        weightedMode: 0
        inWeight: 0.33333334
        outWeight: 0.33333334
      - serializedVersion: 3
        time: 1.6250001
        value: 0
        inSlope: 0
        outSlope: 0
        tangentMode: 0
        weightedMode: 0
        inWeight: 0.33333334
        outWeight: 0.33333334
      - serializedVersion: 3
        time: 1.7500001
        value: 0
        inSlope: 0
        outSlope: 0
        tangentMode: 0
        weightedMode: 0
        inWeight: 0.33333334
        outWeight: 0.33333334
      - serializedVersion: 3
        time: 1.9166667
        value: -4.0711098e-13
        inSlope: 7.327999e-12
        outSlope: 7.3280045e-12
        tangentMode: 0
        weightedMode: 0
        inWeight: 0.33333334
        outWeight: 0.33333334
      - serializedVersion: 3
        time: 2.0833333
        value: 5.0888872e-14
        inSlope: -9.160006e-13
        outSlope: -9.159993e-13
        tangentMode: 0
        weightedMode: 0
        inWeight: 0.33333334
        outWeight: 0.33333334
      - serializedVersion: 3
        time: 2.25
        value: 0
        inSlope: 0
        outSlope: 0
        tangentMode: 0
        weightedMode: 0
        inWeight: 0.33333334
        outWeight: 0.33333334
      - serializedVersion: 3
        time: 2.4166667
        value: 0
        inSlope: 0
        outSlope: 0
        tangentMode: 0
        weightedMode: 0
        inWeight: 0.33333334
        outWeight: 0.33333334
      - serializedVersion: 3
        time: 2.625
        value: 0
        inSlope: 0
        outSlope: 0
        tangentMode: 0
        weightedMode: 0
        inWeight: 0.33333334
        outWeight: 0.33333334
      - serializedVersion: 3
        time: 2.9583333
        value: -4.0711098e-13
        inSlope: 3.6639997e-12
        outSlope: 4.8853317e-12
        tangentMode: 0
        weightedMode: 0
        inWeight: 0.33333334
        outWeight: 0.33333334
      - serializedVersion: 3
        time: 3.2083333
        value: 0
        inSlope: 0
        outSlope: 0
        tangentMode: 0
        weightedMode: 0
        inWeight: 0.33333334
        outWeight: 0.33333334
      - serializedVersion: 3
        time: 3.2916667
        value: 2.0355549e-13
        inSlope: -7.327984e-12
        outSlope: -7.327984e-12
        tangentMode: 0
        weightedMode: 0
        inWeight: 0.33333334
        outWeight: 0.33333334
      m_PreInfinity: 2
      m_PostInfinity: 2
      m_RotationOrder: 4
    attribute: localEulerAngles.z
    path: 1
    classID: 4
    script: {fileID: 0}
  m_HasGenericRootTransform: 0
  m_HasMotionFloatCurves: 0
  m_Events: []
